{
  "__inputs": [

  ],
  "__requires": [

  ],
  "annotations": {
    "list": [
      {
        "builtIn": 1,
        "datasource": "-- Grafana --",
        "enable": true,
        "hide": false,
        "iconColor": "#96D98D",
        "name": "deploy",
        "showIn": 0,
        "tags": [
          "deploy",
          "$environment"
        ],
        "type": "tags"
      },
      {
        "builtIn": 1,
        "datasource": "-- Grafana --",
        "enable": false,
        "hide": false,
        "iconColor": "#FFEE52",
        "name": "canary-deploy",
        "showIn": 0,
        "tags": [
          "deploy",
          "${environment}-cny"
        ],
        "type": "tags"
      },
      {
        "builtIn": 1,
        "datasource": "-- Grafana --",
        "enable": false,
        "hide": false,
        "iconColor": "#CA95E5",
        "name": "feature-flags",
        "showIn": 0,
        "tags": [
          "feature-flag",
          "${environment}"
        ],
        "type": "tags"
      }
    ]
  },
  "description": "Uploaded by https://gitlab.com/gitlab-com/runbooks/-/jobs/5751092186 at Thu Dec 14 10:03:32 UTC 2023",
  "editable": true,
  "gnetId": null,
  "graphTooltip": 1,
  "hideControls": false,
  "id": null,
  "links": [

  ],
  "panels": [
    {
      "collapse": false,
      "collapsed": false,
      "gridPos": {
        "h": 8,
        "w": 24,
        "x": 0,
        "y": 0
      },
      "id": 2,
      "panels": [

      ],
      "repeat": null,
      "repeatIteration": null,
      "repeatRowId": null,
      "showTitle": true,
      "title": "Overview",
      "titleSize": "h6",
      "type": "row"
    },
    {
      "aliasColors": {
      },
      "bars": false,
      "dashLength": 10,
      "dashes": false,
      "datasource": null,
      "decimals": 0,
      "description": "Showcases whether or not an environment and its stage is healthy",
      "fill": 0,
      "fillGradient": 0,
      "gridPos": {
        "h": 12,
        "w": 16,
        "x": 0,
        "y": 0
      },
      "id": 3,
      "legend": {
        "alignAsTable": false,
        "avg": false,
        "current": false,
        "max": false,
        "min": false,
        "rightSide": false,
        "show": false,
        "sideWidth": null,
        "total": false,
        "values": false
      },
      "lines": true,
      "linewidth": 1,
      "links": [

      ],
      "nullPointMode": "null",
      "percentage": false,
      "pointradius": 5,
      "points": false,
      "renderer": "flot",
      "repeat": null,
      "seriesOverrides": [

      ],
      "spaceLength": 10,
      "stack": false,
      "steppedLine": false,
      "targets": [
        {
          "expr": "gitlab_deployment_health:stage{env=\"$environment\", stage=\"$stage\"}",
          "format": "time_series",
          "intervalFactor": 2,
          "legendFormat": "Health",
          "refId": "A"
        }
      ],
      "thresholds": [

      ],
      "timeFrom": null,
      "timeShift": null,
      "title": "Deploy Health",
      "tooltip": {
        "shared": true,
        "sort": 0,
        "value_type": "individual"
      },
      "type": "graph",
      "xaxis": {
        "buckets": null,
        "mode": "time",
        "name": null,
        "show": true,
        "values": [

        ]
      },
      "yaxes": [
        {
          "decimals": 0,
          "format": "none",
          "label": null,
          "logBase": 1,
          "max": null,
          "min": 0,
          "show": true
        },
        {
          "decimals": 0,
          "format": "none",
          "label": null,
          "logBase": 1,
          "max": null,
          "min": 0,
          "show": true
        }
      ]
    },
    {
      "content": "This panel shows the Deployment Health which is taking into account all\nservices for the provided $environment and $stage selected\n\nValues provided are effectively a boolean.  Where `1` is true, or in the\ncase of metrics, a *healthy* state.  Where `0` is false, or in this case,\n*unhealthy*.\n\nView the **Service Deployment Health** for a breakdown of each\ncontributing service that is rolled into this metric.\n",
      "datasource": null,
      "gridPos": {
        "h": 12,
        "w": 8,
        "x": 16,
        "y": 0
      },
      "id": 4,
      "mode": "markdown",
      "title": "Details",
      "type": "text"
    },
    {
      "collapse": false,
      "collapsed": false,
      "gridPos": {
        "h": 8,
        "w": 24,
        "x": 0,
        "y": 1
      },
      "id": 5,
      "panels": [

      ],
      "repeat": null,
      "repeatIteration": null,
      "repeatRowId": null,
      "showTitle": true,
      "title": "Service Breakdown",
      "titleSize": "h6",
      "type": "row"
    },
    {
      "aliasColors": {
      },
      "bars": false,
      "dashLength": 10,
      "dashes": false,
      "datasource": null,
      "decimals": 0,
      "description": "Showcases whether or not the environments stage is healthy with a breakdown by the individual services that contribute to the metric",
      "fill": 10,
      "fillGradient": 0,
      "gridPos": {
        "h": 12,
        "w": 16,
        "x": 0,
        "y": 1
      },
      "id": 6,
      "legend": {
        "alignAsTable": true,
        "avg": false,
        "current": true,
        "max": false,
        "min": true,
        "rightSide": true,
        "show": true,
        "sideWidth": null,
        "total": false,
        "values": true
      },
      "lines": true,
      "linewidth": 1,
      "links": [

      ],
      "nullPointMode": "null",
      "percentage": false,
      "pointradius": 5,
      "points": false,
      "renderer": "flot",
      "repeat": null,
      "seriesOverrides": [

      ],
      "spaceLength": 10,
      "stack": true,
      "steppedLine": false,
      "targets": [
        {
          "expr": "gitlab_deployment_health:service{env=\"$environment\", stage=\"$stage\", type!=\"registry\"}",
          "format": "time_series",
          "intervalFactor": 2,
          "legendFormat": "{{type}}",
          "refId": "A"
        }
      ],
      "thresholds": [

      ],
      "timeFrom": null,
      "timeShift": null,
      "title": "Service Deployment Health",
      "tooltip": {
        "shared": true,
        "sort": 0,
        "value_type": "individual"
      },
      "type": "graph",
      "xaxis": {
        "buckets": null,
        "mode": "time",
        "name": null,
        "show": true,
        "values": [

        ]
      },
      "yaxes": [
        {
          "decimals": 0,
          "format": "short",
          "label": null,
          "logBase": 1,
          "max": null,
          "min": 0,
          "show": true
        },
        {
          "decimals": 0,
          "format": "short",
          "label": null,
          "logBase": 1,
          "max": null,
          "min": 0,
          "show": true
        }
      ]
    },
    {
      "content": "This panel shows the Deployment Health which is showcasing each of the\nservices that are a blocker for deployments.\n\nValues provided are effectively a boolean.  Where `1` is true, or in the\ncase of metrics, a *healthy* state.  Where `0` is false, or in this case,\n*unhealthy*.\n\nWe are using a stack chart to show case each metric individually in an\neasier fashion.\n\nView the **Component Breakdown** for a breakdown of each contributing\nmetric that is rolled into this metrics.\n",
      "datasource": null,
      "gridPos": {
        "h": 12,
        "w": 8,
        "x": 16,
        "y": 1
      },
      "id": 7,
      "mode": "markdown",
      "title": "Details",
      "type": "text"
    },
    {
      "collapse": false,
      "collapsed": false,
      "gridPos": {
        "h": 8,
        "w": 24,
        "x": 0,
        "y": 2
      },
      "id": 8,
      "panels": [

      ],
      "repeat": null,
      "repeatIteration": null,
      "repeatRowId": null,
      "showTitle": true,
      "title": "Component Breakdown",
      "titleSize": "h6",
      "type": "row"
    },
    {
      "aliasColors": {
      },
      "bars": false,
      "dashLength": 10,
      "dashes": false,
      "datasource": null,
      "decimals": 0,
      "description": "Showcases whether or not the environments stage is healthy with a breakdown by the individual services that contribute to the metric",
      "fill": 10,
      "fillGradient": 0,
      "gridPos": {
        "h": 12,
        "w": 16,
        "x": 0,
        "y": 2
      },
      "id": 9,
      "legend": {
        "alignAsTable": true,
        "avg": false,
        "current": true,
        "max": false,
        "min": true,
        "rightSide": true,
        "show": true,
        "sideWidth": null,
        "total": false,
        "values": true
      },
      "lines": true,
      "linewidth": 1,
      "links": [

      ],
      "nullPointMode": "null",
      "percentage": false,
      "pointradius": 5,
      "points": false,
      "renderer": "flot",
      "repeat": null,
      "seriesOverrides": [

      ],
      "spaceLength": 10,
      "stack": true,
      "steppedLine": false,
      "targets": [
        {
          "expr": "gitlab_deployment_health:service:apdex{env=\"$environment\", stage=\"$stage\", type=\"$type\"}",
          "format": "time_series",
          "intervalFactor": 2,
          "legendFormat": "Apdex",
          "refId": "A"
        },
        {
          "expr": "gitlab_deployment_health:service:errors{env=\"$environment\", stage=\"$stage\", type=\"$type\"}",
          "format": "time_series",
          "intervalFactor": 2,
          "legendFormat": "Errors",
          "refId": "B"
        }
      ],
      "thresholds": [

      ],
      "timeFrom": null,
      "timeShift": null,
      "title": "Component Deployment Health",
      "tooltip": {
        "shared": true,
        "sort": 0,
        "value_type": "individual"
      },
      "type": "graph",
      "xaxis": {
        "buckets": null,
        "mode": "time",
        "name": null,
        "show": true,
        "values": [

        ]
      },
      "yaxes": [
        {
          "decimals": 0,
          "format": "short",
          "label": null,
          "logBase": 1,
          "max": null,
          "min": 0,
          "show": true
        },
        {
          "decimals": 0,
          "format": "short",
          "label": null,
          "logBase": 1,
          "max": null,
          "min": 0,
          "show": true
        }
      ]
    },
    {
      "content": "This panel shows the Deployment Health which is showcasing each of the\ncontributing factors, Apdex, and Error SLI's and whether or not they\nare within the service boundaries.\n\nValues provided are effectively a boolean.  Where `1` is true, or in the\ncase of metrics, a *healthy* state.  Where `0` is false, or in this case,\n*unhealthy*.\n\nWe're using a stack chart to show case each metric individually in an\neasier fashion.\n",
      "datasource": null,
      "gridPos": {
        "h": 12,
        "w": 8,
        "x": 16,
        "y": 2
      },
      "id": 10,
      "mode": "markdown",
      "title": "Details",
      "type": "text"
    },
    {
      "collapse": false,
      "collapsed": false,
      "gridPos": {
        "h": 8,
        "w": 24,
        "x": 0,
        "y": 3
      },
      "id": 11,
      "panels": [

      ],
      "repeat": null,
      "repeatIteration": null,
      "repeatRowId": null,
      "showTitle": true,
      "title": "Component Deployment Health Breakdown",
      "titleSize": "h6",
      "type": "row"
    },
    {
      "content": "Utilize the below links to browse to the various dashboards that\nshowcases the burnrates for the various windows of time that contribute\ntowards to deployment health metric for the selected component, stage,\nand environment.\n  - [Error SLO Analysis](https://dashboards.gitlab.net/d/alerts-service_slo_error/alerts-global-service-aggregated-metrics-error-slo-analysis?orgId=1&var-PROMETHEUS_DS=Global&var-environment=$environment&var-type=$type&var-stage=$stage&var-proposed_slo=0.999)\n  - [Apdex SLO Analysis](https://dashboards.gitlab.net/d/alerts-service_slo_apdex/alerts-global-service-aggregated-metrics-apdex-slo-analysis?orgId=1&var-PROMETHEUS_DS=Global&var-environment=$environment&var-type=$type&var-stage=$stage&var-proposed_slo=0.997)\n",
      "datasource": null,
      "gridPos": {
        "h": 8,
        "w": 8,
        "x": 0,
        "y": 3
      },
      "id": 12,
      "mode": "markdown",
      "title": "Details",
      "type": "text"
    },
    {
      "content": "Made with ❤️ and [Grafonnet](https://github.com/grafana/grafonnet-lib). [Contribute to this dashboard on GitLab.com](https://gitlab.com/gitlab-com/runbooks/blob/master/dashboards)\n",
      "datasource": null,
      "gridPos": {
        "h": 2,
        "w": 24,
        "x": 0,
        "y": 110000
      },
      "id": 13,
      "mode": "markdown",
      "title": "Source",
      "type": "text"
    }
  ],
  "refresh": "",
  "rows": [

  ],
  "schemaVersion": 16,
  "style": "light",
  "tags": [
    "managed",
    "delivery",
    "release"
  ],
  "templating": {
    "list": [
      {
        "current": {
          "text": "Global",
          "value": "Global"
        },
        "hide": 0,
        "label": null,
        "name": "PROMETHEUS_DS",
        "options": [

        ],
        "query": "prometheus",
        "refresh": 1,
        "regex": "",
        "type": "datasource"
      },
      {
        "allValue": null,
        "current": {
          "text": "gprd",
          "value": "gprd"
        },
        "datasource": "$PROMETHEUS_DS",
        "hide": 0,
        "includeAll": false,
        "label": null,
        "multi": false,
        "name": "environment",
        "options": [

        ],
        "query": "label_values(gitlab_service_ops:rate, environment)",
        "refresh": 1,
        "regex": "",
        "sort": 1,
        "tagValuesQuery": "",
        "tags": [

        ],
        "tagsQuery": "",
        "type": "query",
        "useTags": false
      },
      {
        "allValue": null,
        "current": {
          "text": "main",
          "value": "main"
        },
        "hide": 0,
        "includeAll": false,
        "label": "",
        "multi": false,
        "name": "stage",
        "options": [
          {
            "text": "main",
            "value": "main"
          },
          {
            "text": "cny",
            "value": "cny"
          },
          {
            "text": "",
            "value": ""
          }
        ],
        "query": "main,cny,",
        "refresh": 0,
        "type": "custom"
      },
      {
        "allValue": null,
        "current": {
          "text": "web",
          "value": "web"
        },
        "datasource": "$PROMETHEUS_DS",
        "hide": 0,
        "includeAll": false,
        "label": null,
        "multi": false,
        "name": "type",
        "options": [

        ],
        "query": "label_values(gitlab_service_ops:rate{environment=\"$environment\"}, type)",
        "refresh": 1,
        "regex": "",
        "sort": 1,
        "tagValuesQuery": "",
        "tags": [

        ],
        "tagsQuery": "",
        "type": "query",
        "useTags": false
      }
    ]
  },
  "time": {
    "from": "now-6h/m",
    "to": "now/m"
  },
  "timepicker": {
    "refresh_intervals": [
      "1m",
      "5m",
      "10m",
      "15m",
      "30m"
    ],
    "time_options": [
      "5m",
      "15m",
      "1h",
      "6h",
      "12h",
      "24h",
      "2d",
      "7d",
      "30d"
    ]
  },
  "timezone": "utc",
  "title": "delivery: Deployment Health",
  "uid": "delivery-deployment_health",
  "version": 1583
}