{
  "__inputs": [

  ],
  "__requires": [

  ],
  "annotations": {
    "list": [

    ]
  },
  "description": "Uploaded by https://gitlab.com/gitlab-com/runbooks/-/jobs/5751092186 at Thu Dec 14 10:04:37 UTC 2023",
  "editable": false,
  "gnetId": null,
  "graphTooltip": 1,
  "hideControls": false,
  "id": null,
  "links": [

  ],
  "panels": [
    {
      "content": "Application demand is used as a way to identify that there may have been an application level change that\nalters how the application makes requests of the underlying infrastructure.\n\nFor more information, please view the [Indicators section on the Scalability Team\nHandbook Page](https://about.gitlab.com/handbook/engineering/infrastructure/team/scalability#application-demand).\n",
      "datasource": null,
      "gridPos": {
        "h": 4,
        "w": 24,
        "x": 0,
        "y": 100
      },
      "id": 2,
      "mode": "markdown",
      "title": "Application Demand Indicators Help",
      "type": "text"
    },
    {
      "aliasColors": {
      },
      "bars": false,
      "dashLength": 10,
      "dashes": false,
      "datasource": "$PROMETHEUS_DS",
      "decimals": 0,
      "description": "",
      "fill": 0,
      "fillGradient": 0,
      "gridPos": {
        "h": 12,
        "w": 24,
        "x": 0,
        "y": 100
      },
      "id": 3,
      "legend": {
        "alignAsTable": true,
        "avg": true,
        "current": true,
        "hideEmpty": true,
        "max": true,
        "min": true,
        "rightSide": false,
        "show": true,
        "sideWidth": null,
        "total": false,
        "values": true
      },
      "lines": true,
      "linewidth": 2,
      "links": [

      ],
      "nullPointMode": "null",
      "percentage": false,
      "pointradius": 5,
      "points": false,
      "renderer": "flot",
      "repeat": null,
      "seriesOverrides": [

      ],
      "spaceLength": 10,
      "stack": false,
      "steppedLine": false,
      "targets": [
        {
          "expr": "(sum by (env) (avg_over_time(gitlab_service_ops:rate{type=\"sidekiq\", stage=\"main\", env=\"gprd\", monitor=\"global\"}[1w]))\n or\n sum by (env) (avg_over_time(gitlab_service_ops:rate{type=\"sidekiq\", stage=\"main\", env=\"gprd\", monitor!=\"global\"}[1w]))\n ) * 86400 * 7\n",
          "format": "time_series",
          "interval": "1m",
          "intervalFactor": 1,
          "legendFormat": "{{env}}",
          "refId": "A"
        }
      ],
      "thresholds": [

      ],
      "timeFrom": null,
      "timeShift": null,
      "title": "Sidekiq - average operations per week",
      "tooltip": {
        "shared": true,
        "sort": 2,
        "value_type": "individual"
      },
      "type": "graph",
      "xaxis": {
        "buckets": null,
        "mode": "time",
        "name": null,
        "show": true,
        "values": [

        ]
      },
      "yaxes": [
        {
          "format": "short",
          "label": "",
          "logBase": 1,
          "max": null,
          "min": 0,
          "show": true
        },
        {
          "format": "short",
          "label": null,
          "logBase": 1,
          "max": 1,
          "min": 0,
          "show": false
        }
      ]
    },
    {
      "aliasColors": {
      },
      "bars": false,
      "dashLength": 10,
      "dashes": false,
      "datasource": "$PROMETHEUS_DS",
      "decimals": 0,
      "description": "",
      "fill": 0,
      "fillGradient": 0,
      "gridPos": {
        "h": 12,
        "w": 24,
        "x": 0,
        "y": 100
      },
      "id": 4,
      "legend": {
        "alignAsTable": true,
        "avg": true,
        "current": true,
        "hideEmpty": true,
        "max": true,
        "min": true,
        "rightSide": false,
        "show": true,
        "sideWidth": null,
        "total": false,
        "values": true
      },
      "lines": true,
      "linewidth": 2,
      "links": [

      ],
      "nullPointMode": "null",
      "percentage": false,
      "pointradius": 5,
      "points": false,
      "renderer": "flot",
      "repeat": null,
      "seriesOverrides": [

      ],
      "spaceLength": 10,
      "stack": false,
      "steppedLine": false,
      "targets": [
        {
          "expr": "(sum by (env, type) (avg_over_time(gitlab_service_ops:rate{type=~\"redis|redis-cluster-cache|redis-sidekiq\", stage=\"main\", env=\"gprd\", monitor=\"global\"}[1w]))\nor\nsum by (env, type) (avg_over_time(gitlab_service_ops:rate{type=~\"redis(-cluster-cache|-sidekiq)?\", stage=\"main\", env=\"gprd\", monitor!=\"global\"}[1w]))\n) * 86400 * 7\n",
          "format": "time_series",
          "interval": "1m",
          "intervalFactor": 1,
          "legendFormat": "{{env}} - {{type}}",
          "refId": "A"
        }
      ],
      "thresholds": [

      ],
      "timeFrom": null,
      "timeShift": null,
      "title": "Redis - average operations per week",
      "tooltip": {
        "shared": true,
        "sort": 2,
        "value_type": "individual"
      },
      "type": "graph",
      "xaxis": {
        "buckets": null,
        "mode": "time",
        "name": null,
        "show": true,
        "values": [

        ]
      },
      "yaxes": [
        {
          "format": "short",
          "label": "",
          "logBase": 1,
          "max": null,
          "min": 0,
          "show": true
        },
        {
          "format": "short",
          "label": null,
          "logBase": 1,
          "max": 1,
          "min": 0,
          "show": false
        }
      ]
    }
  ],
  "refresh": "",
  "rows": [

  ],
  "schemaVersion": 16,
  "style": "light",
  "tags": [
    "managed",
    "general",
    "general"
  ],
  "templating": {
    "list": [
      {
        "current": {
          "text": "Global",
          "value": "Global"
        },
        "hide": 0,
        "label": null,
        "name": "PROMETHEUS_DS",
        "options": [

        ],
        "query": "prometheus",
        "refresh": 1,
        "regex": "",
        "type": "datasource"
      },
      {
        "allValue": null,
        "current": {
          "text": "gprd",
          "value": "gprd"
        },
        "datasource": "$PROMETHEUS_DS",
        "hide": 0,
        "includeAll": false,
        "label": null,
        "multi": false,
        "name": "environment",
        "options": [

        ],
        "query": "label_values(gitlab_service_ops:rate, environment)",
        "refresh": 1,
        "regex": "",
        "sort": 1,
        "tagValuesQuery": "",
        "tags": [

        ],
        "tagsQuery": "",
        "type": "query",
        "useTags": false
      }
    ]
  },
  "time": {
    "from": "now-6M",
    "to": "now"
  },
  "timepicker": {
    "refresh_intervals": [
      "1m",
      "5m",
      "10m",
      "15m",
      "30m"
    ],
    "time_options": [
      "5m",
      "15m",
      "1h",
      "6h",
      "12h",
      "24h",
      "2d",
      "7d",
      "30d"
    ]
  },
  "timezone": "utc",
  "title": "general: Application Demand Indicators",
  "uid": "general-application-demand",
  "version": 3786
}