{
  "__inputs": [

  ],
  "__requires": [

  ],
  "annotations": {
    "list": [
      {
        "builtIn": 1,
        "datasource": "-- Grafana --",
        "enable": true,
        "hide": false,
        "iconColor": "#96D98D",
        "name": "deploy",
        "showIn": 0,
        "tags": [
          "deploy",
          "$environment"
        ],
        "type": "tags"
      },
      {
        "builtIn": 1,
        "datasource": "-- Grafana --",
        "enable": false,
        "hide": false,
        "iconColor": "#FFEE52",
        "name": "canary-deploy",
        "showIn": 0,
        "tags": [
          "deploy",
          "${environment}-cny"
        ],
        "type": "tags"
      },
      {
        "builtIn": 1,
        "datasource": "-- Grafana --",
        "enable": false,
        "hide": false,
        "iconColor": "#CA95E5",
        "name": "feature-flags",
        "showIn": 0,
        "tags": [
          "feature-flag",
          "${environment}"
        ],
        "type": "tags"
      }
    ]
  },
  "description": "Uploaded by https://gitlab.com/gitlab-com/runbooks/-/jobs/5751092186 at Thu Dec 14 10:04:39 UTC 2023",
  "editable": false,
  "gnetId": null,
  "graphTooltip": 1,
  "hideControls": false,
  "id": null,
  "links": [

  ],
  "panels": [
    {
      "datasource": null,
      "description": "",
      "fieldConfig": {
        "defaults": {
          "decimals": 2,
          "displayName": "",
          "links": [

          ],
          "mappings": [

          ],
          "thresholds": {
            "mode": "absolute",
            "steps": [
              {
                "color": "red",
                "value": null
              },
              {
                "color": "green",
                "value": 0.9995
              }
            ]
          },
          "unit": "percentunit"
        }
      },
      "gridPos": {
        "h": 10,
        "w": 12,
        "x": 0,
        "y": 100
      },
      "id": 2,
      "links": [

      ],
      "options": {
        "colorMode": "background",
        "graphMode": "none",
        "justifyMode": "auto",
        "orientation": "vertical",
        "reduceOptions": {
          "calcs": [
            "lastNotNull"
          ],
          "fields": "",
          "values": false
        },
        "textMode": "auto"
      },
      "pluginVersion": "7",
      "targets": [
        {
          "expr": "clamp_max(\n  sum by ()(\n    sum by (stage_group,component) (\n      label_replace(\n        sum_over_time(\n          gitlab:component:stage_group:execution:apdex:success:rate_1h{environment=\"$environment\",monitor=\"global\",product_stage=~\"$product_stage\",stage_group=~\"$stage_group\"}[$__range]\n        ), 'sli_kind', 'apdex', '', ''\n      )\n      or\n      label_replace(\n        sum_over_time(\n          gitlab:component:stage_group:execution:ops:rate_1h{environment=\"$environment\",monitor=\"global\",product_stage=~\"$product_stage\",stage_group=~\"$stage_group\"}[$__range]\n        )\n        -\n        sum_over_time(\n          gitlab:component:stage_group:execution:error:rate_1h{environment=\"$environment\",monitor=\"global\",product_stage=~\"$product_stage\",stage_group=~\"$stage_group\"}[$__range]\n        ), 'sli_kind', 'error', '', ''\n      )\n    ) unless on (stage_group,component) gitlab:ignored_component:stage_group\n  )\n  /\n  sum by ()(\n    sum by (stage_group,component) (\n      label_replace(\n        sum_over_time(\n          gitlab:component:stage_group:execution:apdex:weight:score_1h{environment=\"$environment\",monitor=\"global\",product_stage=~\"$product_stage\",stage_group=~\"$stage_group\"}[$__range]\n        ),\n        'sli_kind', 'apdex', '', ''\n      )\n      or\n      label_replace(\n        sum_over_time(\n          gitlab:component:stage_group:execution:ops:rate_1h{environment=\"$environment\",monitor=\"global\",product_stage=~\"$product_stage\",stage_group=~\"$stage_group\"}[$__range]\n        )\n        and sum_over_time(gitlab:component:stage_group:execution:error:rate_1h{environment=\"$environment\",monitor=\"global\",product_stage=~\"$product_stage\",stage_group=~\"$stage_group\"}[$__range]),\n        'sli_kind', 'error', '', ''\n      )\n    ) unless on (stage_group,component) gitlab:ignored_component:stage_group\n  ),\n1)\n",
          "format": "time_series",
          "instant": true,
          "interval": "1m",
          "intervalFactor": 1,
          "legendFormat": "",
          "refId": "A"
        }
      ],
      "title": "Error budget for all groups",
      "transformations": [

      ],
      "transparent": false,
      "type": "stat"
    },
    {
      "aliasColors": {
      },
      "bars": false,
      "dashLength": 10,
      "dashes": false,
      "datasource": "$PROMETHEUS_DS",
      "decimals": 0,
      "description": "",
      "fill": 0,
      "fillGradient": 0,
      "gridPos": {
        "h": 10,
        "w": 12,
        "x": 12,
        "y": 100
      },
      "id": 3,
      "legend": {
        "alignAsTable": true,
        "avg": true,
        "current": true,
        "hideEmpty": true,
        "max": true,
        "min": true,
        "rightSide": false,
        "show": false,
        "sideWidth": null,
        "total": false,
        "values": true
      },
      "lines": true,
      "linewidth": 1,
      "links": [

      ],
      "nullPointMode": "null",
      "percentage": false,
      "pointradius": 5,
      "points": false,
      "renderer": "flot",
      "repeat": null,
      "seriesOverrides": [

      ],
      "spaceLength": 10,
      "stack": false,
      "steppedLine": false,
      "targets": [
        {
          "expr": "3",
          "format": "time_series",
          "interval": "1m",
          "intervalFactor": 1,
          "legendFormat": "Target",
          "refId": "A"
        },
        {
          "expr": "count(\n  last_over_time(gitlab:stage_group:availability:ratio_28d{environment=\"$environment\",monitor=\"global\",product_stage=~\"$product_stage\",stage_group=~\"$stage_group\"}[$__range]) < 0.9995\n  and\n  last_over_time(gitlab:stage_group:traffic_share:ratio_28d{environment=\"$environment\",monitor=\"global\",product_stage=~\"$product_stage\",stage_group=~\"$stage_group\"}[$__range]) > 0.0001\n)\n",
          "format": "time_series",
          "interval": "1m",
          "intervalFactor": 1,
          "legendFormat": "Teams Over Budget",
          "refId": "B"
        }
      ],
      "thresholds": [

      ],
      "timeFrom": null,
      "timeShift": null,
      "title": "Teams over budget target",
      "tooltip": {
        "shared": true,
        "sort": "desc",
        "value_type": "individual"
      },
      "type": "graph",
      "xaxis": {
        "buckets": null,
        "mode": "time",
        "name": null,
        "show": true,
        "values": [

        ]
      },
      "yaxes": [
        {
          "decimals": 0,
          "format": "short",
          "label": null,
          "logBase": 1,
          "max": null,
          "min": null,
          "show": true
        },
        {
          "decimals": 0,
          "format": "short",
          "label": null,
          "logBase": 1,
          "max": null,
          "min": null,
          "show": true
        }
      ]
    },
    {
      "collapse": false,
      "collapsed": false,
      "gridPos": {
        "h": 1,
        "w": 24,
        "x": 0,
        "y": 200
      },
      "id": 4,
      "panels": [

      ],
      "repeat": null,
      "repeatIteration": null,
      "repeatRowId": null,
      "showTitle": true,
      "title": "Error budget by groups",
      "titleSize": "h6",
      "type": "row"
    },
    {
      "columns": [

      ],
      "datasource": "$PROMETHEUS_DS",
      "description": "",
      "fieldConfig": {
        "overrides": [
          {
            "matcher": {
              "id": "byName",
              "options": "Availability"
            },
            "properties": [
              {
                "id": "unit",
                "value": "percentunit"
              },
              {
                "id": "decimals",
                "value": 2
              },
              {
                "id": "custom.cellOptions",
                "value": {
                  "type": "color-text"
                }
              },
              {
                "id": "color.mode",
                "value": "thresholds"
              },
              {
                "id": "thresholds",
                "value": {
                  "steps": [
                    {
                      "color": "red",
                      "value": null
                    },
                    {
                      "color": "green",
                      "value": 0.9995
                    }
                  ]
                }
              }
            ]
          },
          {
            "matcher": {
              "id": "byName",
              "options": "Traffic %"
            },
            "properties": [
              {
                "id": "unit",
                "value": "percentunit"
              },
              {
                "id": "decimals",
                "value": 2
              },
              {
                "id": "custom.cellOptions",
                "value": {
                  "type": "color-text"
                }
              },
              {
                "id": "color.mode",
                "value": "thresholds"
              },
              {
                "id": "thresholds",
                "value": {
                  "steps": [
                    {
                      "color": "grey",
                      "value": null
                    },
                    {
                      "color": "white",
                      "value": 0.0001
                    }
                  ]
                }
              }
            ]
          }
        ]
      },
      "gridPos": {
        "h": 10,
        "w": 24,
        "x": 0,
        "y": 201
      },
      "id": 5,
      "links": [

      ],
      "options": {
        "sortBy": [
          {
            "desc": true,
            "displayName": "Traffic %"
          },
          {
            "asc": true,
            "displayName": "Availability"
          }
        ]
      },
      "styles": null,
      "targets": [
        {
          "expr": "sum by (product_stage, stage_group) (\n  last_over_time(gitlab:stage_group:availability:ratio_28d{environment=\"$environment\",monitor=\"global\",product_stage=~\"$product_stage\",stage_group=~\"$stage_group\"}[$__range])\n)\n",
          "format": "table",
          "instant": true,
          "interval": "1m",
          "intervalFactor": 1,
          "legendFormat": "",
          "refId": "A"
        },
        {
          "expr": "sum by (product_stage, stage_group) (\n  last_over_time(gitlab:stage_group:traffic_share:ratio_28d{environment=\"$environment\",monitor=\"global\",product_stage=~\"$product_stage\",stage_group=~\"$stage_group\"}[$__range])\n)\n",
          "format": "table",
          "instant": true,
          "interval": "1m",
          "intervalFactor": 1,
          "legendFormat": "",
          "refId": "B"
        }
      ],
      "timeFrom": null,
      "timeShift": null,
      "title": "Availabilities",
      "transformations": [
        {
          "id": "merge"
        },
        {
          "id": "renameByRegex",
          "options": {
            "regex": "Value #A",
            "renamePattern": "Availability"
          }
        },
        {
          "id": "renameByRegex",
          "options": {
            "regex": "Value #B",
            "renamePattern": "Traffic %"
          }
        },
        {
          "id": "renameByRegex",
          "options": {
            "regex": "stage_group",
            "renamePattern": "Group"
          }
        },
        {
          "id": "renameByRegex",
          "options": {
            "regex": "product_stage",
            "renamePattern": "Stage"
          }
        },
        {
          "id": "organize",
          "options": {
            "excludeByName": {
              "Time": true,
              "env": true,
              "feature_category": true
            },
            "indexByName": {
              "Availability": 3,
              "Group": 1,
              "Stage": 2
            }
          }
        }
      ],
      "type": "table"
    },
    {
      "content": "Made with ❤️ and [Grafonnet](https://github.com/grafana/grafonnet-lib). [Contribute to this dashboard on GitLab.com](https://gitlab.com/gitlab-com/runbooks/blob/master/dashboards)\n",
      "datasource": null,
      "gridPos": {
        "h": 2,
        "w": 24,
        "x": 0,
        "y": 110000
      },
      "id": 6,
      "mode": "markdown",
      "title": "Source",
      "type": "text"
    }
  ],
  "refresh": "",
  "rows": [

  ],
  "schemaVersion": 16,
  "style": "light",
  "tags": [
    "managed",
    "general"
  ],
  "templating": {
    "list": [
      {
        "current": {
          "text": "Global",
          "value": "Global"
        },
        "hide": 0,
        "label": null,
        "name": "PROMETHEUS_DS",
        "options": [

        ],
        "query": "prometheus",
        "refresh": 1,
        "regex": "",
        "type": "datasource"
      },
      {
        "allValue": null,
        "current": {
          "text": "gprd",
          "value": "gprd"
        },
        "datasource": "$PROMETHEUS_DS",
        "hide": 0,
        "includeAll": false,
        "label": null,
        "multi": false,
        "name": "environment",
        "options": [

        ],
        "query": "label_values(gitlab_service_ops:rate, environment)",
        "refresh": 1,
        "regex": "",
        "sort": 1,
        "tagValuesQuery": "",
        "tags": [

        ],
        "tagsQuery": "",
        "type": "query",
        "useTags": false
      },
      {
        "allValue": null,
        "current": {
          "text": "gprd",
          "value": "gprd"
        },
        "datasource": "$PROMETHEUS_DS",
        "hide": 0,
        "includeAll": false,
        "label": null,
        "multi": false,
        "name": "environment",
        "options": [

        ],
        "query": "label_values(gitlab_service_ops:rate, environment)",
        "refresh": 1,
        "regex": "",
        "sort": 1,
        "tagValuesQuery": "",
        "tags": [

        ],
        "tagsQuery": "",
        "type": "query",
        "useTags": false
      },
      {
        "allValue": null,
        "current": {
          "text": "main",
          "value": "main"
        },
        "hide": 0,
        "includeAll": false,
        "label": "",
        "multi": false,
        "name": "stage",
        "options": [
          {
            "text": "main",
            "value": "main"
          },
          {
            "text": "cny",
            "value": "cny"
          },
          {
            "text": "",
            "value": ""
          }
        ],
        "query": "main,cny,",
        "refresh": 0,
        "type": "custom"
      },
      {
        "allValue": ".*",
        "current": {
        },
        "datasource": "$PROMETHEUS_DS",
        "hide": 0,
        "includeAll": true,
        "label": null,
        "multi": true,
        "name": "product_stage",
        "options": [

        ],
        "query": "label_values(gitlab:feature_category:stage_group:mapping{monitor=\"global\"}, product_stage)",
        "refresh": 1,
        "regex": "",
        "sort": 0,
        "tagValuesQuery": "",
        "tags": [

        ],
        "tagsQuery": "",
        "type": "query",
        "useTags": false
      },
      {
        "allValue": ".*",
        "current": {
        },
        "datasource": "$PROMETHEUS_DS",
        "hide": 0,
        "includeAll": true,
        "label": null,
        "multi": true,
        "name": "stage_group",
        "options": [

        ],
        "query": "label_values(gitlab:feature_category:stage_group:mapping{monitor=\"global\", product_stage=~\"$product_stage\"}, stage_group)",
        "refresh": 1,
        "regex": "",
        "sort": 0,
        "tagValuesQuery": "",
        "tags": [

        ],
        "tagsQuery": "",
        "type": "query",
        "useTags": false
      }
    ]
  },
  "time": {
    "from": "now-7d/m",
    "to": "now/m"
  },
  "timepicker": {
    "refresh_intervals": [
      "1m",
      "5m",
      "10m",
      "15m",
      "30m"
    ],
    "time_options": [
      "5m",
      "15m",
      "1h",
      "6h",
      "12h",
      "24h",
      "2d",
      "7d",
      "30d"
    ]
  },
  "timezone": "utc",
  "title": "general: Availability indicator",
  "uid": "general-availability-indicator",
  "version": 690
}