{
  "__inputs": [

  ],
  "__requires": [

  ],
  "annotations": {
    "list": [
      {
        "builtIn": 1,
        "datasource": "-- Grafana --",
        "enable": true,
        "hide": false,
        "iconColor": "#96D98D",
        "name": "deploy",
        "showIn": 0,
        "tags": [
          "deploy",
          "$environment"
        ],
        "type": "tags"
      },
      {
        "builtIn": 1,
        "datasource": "-- Grafana --",
        "enable": false,
        "hide": false,
        "iconColor": "#FFEE52",
        "name": "canary-deploy",
        "showIn": 0,
        "tags": [
          "deploy",
          "${environment}-cny"
        ],
        "type": "tags"
      },
      {
        "builtIn": 1,
        "datasource": "-- Grafana --",
        "enable": false,
        "hide": false,
        "iconColor": "#CA95E5",
        "name": "feature-flags",
        "showIn": 0,
        "tags": [
          "feature-flag",
          "${environment}"
        ],
        "type": "tags"
      }
    ]
  },
  "description": "Uploaded by https://gitlab.com/gitlab-com/runbooks/-/jobs/5751092186 at Thu Dec 14 09:59:02 UTC 2023",
  "editable": false,
  "gnetId": null,
  "graphTooltip": 1,
  "hideControls": false,
  "id": null,
  "links": [

  ],
  "panels": [
    {
      "collapse": false,
      "collapsed": false,
      "gridPos": {
        "h": 1,
        "w": 24,
        "x": 0,
        "y": 1000
      },
      "id": 2,
      "panels": [

      ],
      "repeat": null,
      "repeatIteration": null,
      "repeatRowId": null,
      "showTitle": true,
      "title": "Migration Status",
      "titleSize": "h6",
      "type": "row"
    },
    {
      "aliasColors": {
      },
      "bars": false,
      "dashLength": 10,
      "dashes": false,
      "datasource": "$PROMETHEUS_DS",
      "decimals": 0,
      "description": "Total number of repositories that are on the old Gitaly VMs that we are migrating away from.",
      "fill": 0,
      "fillGradient": 0,
      "gridPos": {
        "h": 10,
        "w": 8,
        "x": 0,
        "y": 1001
      },
      "id": 3,
      "legend": {
        "alignAsTable": true,
        "avg": true,
        "current": true,
        "hideEmpty": true,
        "max": true,
        "min": true,
        "rightSide": false,
        "show": false,
        "sideWidth": null,
        "total": false,
        "values": true
      },
      "lines": true,
      "linewidth": 2,
      "links": [

      ],
      "nullPointMode": "null",
      "percentage": false,
      "pointradius": 5,
      "points": false,
      "renderer": "flot",
      "repeat": null,
      "seriesOverrides": [

      ],
      "spaceLength": 10,
      "stack": false,
      "steppedLine": false,
      "targets": [
        {
          "expr": "sum (gitaly_total_repositories_count{env=\"$environment\",environment=\"$environment\",fqdn=~\"file-(marquee-)?\\\\d+-stor-.*\",prefix=~\"@.*\",type=\"gitaly\"})\n",
          "format": "time_series",
          "interval": "1m",
          "intervalFactor": 1,
          "legendFormat": "sum",
          "refId": "A"
        }
      ],
      "thresholds": [

      ],
      "timeFrom": null,
      "timeShift": null,
      "title": "Repositories on old Gitaly VMs",
      "tooltip": {
        "shared": true,
        "sort": 2,
        "value_type": "individual"
      },
      "type": "graph",
      "xaxis": {
        "buckets": null,
        "mode": "time",
        "name": null,
        "show": true,
        "values": [

        ]
      },
      "yaxes": [
        {
          "format": "short",
          "label": "",
          "logBase": 1,
          "max": null,
          "min": 0,
          "show": true
        },
        {
          "format": "short",
          "label": null,
          "logBase": 1,
          "max": 1,
          "min": 0,
          "show": false
        }
      ]
    },
    {
      "aliasColors": {
      },
      "bars": false,
      "dashLength": 10,
      "dashes": false,
      "datasource": "$PROMETHEUS_DS",
      "decimals": 0,
      "description": "Total number of repositories that we have on the new Gitaly VMs.",
      "fill": 0,
      "fillGradient": 0,
      "gridPos": {
        "h": 10,
        "w": 8,
        "x": 8,
        "y": 1001
      },
      "id": 4,
      "legend": {
        "alignAsTable": true,
        "avg": true,
        "current": true,
        "hideEmpty": true,
        "max": true,
        "min": true,
        "rightSide": false,
        "show": false,
        "sideWidth": null,
        "total": false,
        "values": true
      },
      "lines": true,
      "linewidth": 2,
      "links": [

      ],
      "nullPointMode": "null",
      "percentage": false,
      "pointradius": 5,
      "points": false,
      "renderer": "flot",
      "repeat": null,
      "seriesOverrides": [

      ],
      "spaceLength": 10,
      "stack": false,
      "steppedLine": false,
      "targets": [
        {
          "expr": "sum (gitaly_total_repositories_count{env=\"$environment\",environment=\"$environment\",fqdn=~\"gitaly-.*-stor-.*\",prefix=~\"@.*\",type=\"gitaly\"})\n",
          "format": "time_series",
          "interval": "1m",
          "intervalFactor": 1,
          "legendFormat": "sum",
          "refId": "A"
        }
      ],
      "thresholds": [

      ],
      "timeFrom": null,
      "timeShift": null,
      "title": "Repositories on new Gitaly VMs",
      "tooltip": {
        "shared": true,
        "sort": 2,
        "value_type": "individual"
      },
      "type": "graph",
      "xaxis": {
        "buckets": null,
        "mode": "time",
        "name": null,
        "show": true,
        "values": [

        ]
      },
      "yaxes": [
        {
          "format": "short",
          "label": "",
          "logBase": 1,
          "max": null,
          "min": 0,
          "show": true
        },
        {
          "format": "short",
          "label": null,
          "logBase": 1,
          "max": 1,
          "min": 0,
          "show": false
        }
      ]
    },
    {
      "content": "## Introduction\n\nThis dashboard is to track progress for the [multi-project Gitaly](https://gitlab.com/groups/gitlab-com/gl-infra/-/epics/935) epic\nto migrate from the old infrastructure to the new infrastructure.\n\nYou can track how many repositories we have on the old Gitaly VMs and\nnew Gitaly VMs and check the rate at which we are moving\nthese repositories below. Any failures on moving a repository will show up below as well, and you\ncan check the logs for the failure reason.\n\n## Debugging\n\n- 🪵 [`gitalyctl` Logs](https://dashboards.gitlab.net/explore?orgId=1&left=%7B%22datasource%22:%22R8ugoM-Vk%22,%22queries%22:%5B%7B%22refId%22:%22A%22,%22expr%22:%22%7Bnamespace%3D%5C%22gitalyctl%5C%22%7D%20%7C%3D%20%60%60%22,%22queryType%22:%22range%22,%22datasource%22:%7B%22type%22:%22loki%22,%22uid%22:%22R8ugoM-Vk%22%7D,%22editorMode%22:%22builder%22%7D%5D,%22range%22:%7B%22from%22:%22now-7d%22,%22to%22:%22now%22%7D%7D)\n- [🔥 `gitalyctl` Error Logs](https://dashboards.gitlab.net/explore?orgId=1&left=%7B%22datasource%22:%22R8ugoM-Vk%22,%22queries%22:%5B%7B%22refId%22:%22A%22,%22expr%22:%22%7Bnamespace%3D%5C%22gitalyctl%5C%22%7D%20%7C%20json%20level%3D%5C%22level%5C%22%20%7C%20level%20%3D%20%60error%60%22,%22queryType%22:%22range%22,%22datasource%22:%7B%22type%22:%22loki%22,%22uid%22:%22R8ugoM-Vk%22%7D,%22editorMode%22:%22builder%22%7D%5D,%22range%22:%7B%22from%22:%22now-7d%22,%22to%22:%22now%22%7D%7D)\n- [💿 `gstg` API logs](https://nonprod-log.gitlab.net/app/r/s/mGwlo)\n- [💿 `gprd` API logs](https://log.gprd.gitlab.net/app/r/s/nVbro)\n- [🦵 `gstg` sidekiq logs for repository moves](https://nonprod-log.gitlab.net/app/r/s/GS5F1)\n- [🦵 `gprd` sidekiq logs for repository moves](https://log.gprd.gitlab.net/app/r/s/2E90v)\n\n## References\n\n- [Epic](https://gitlab.com/groups/gitlab-com/gl-infra/-/epics/935)\n- [Design Doc](https://gitlab.com/gitlab-com/gl-infra/readiness/-/blob/master/library/gitaly-multi-project/README.md)\n- [Issue Board](https://gitlab.com/groups/gitlab-com/gl-infra/-/boards/5908541?label_name[]=WG%3A%3ADisasterRecovery&group_by=epic)\n",
      "datasource": null,
      "gridPos": {
        "h": 10,
        "w": 8,
        "x": 16,
        "y": 1001
      },
      "id": 5,
      "mode": "markdown",
      "title": "REDME",
      "type": "text"
    },
    {
      "collapse": false,
      "collapsed": false,
      "gridPos": {
        "h": 1,
        "w": 24,
        "x": 0,
        "y": 1100
      },
      "id": 6,
      "panels": [

      ],
      "repeat": null,
      "repeatIteration": null,
      "repeatRowId": null,
      "showTitle": true,
      "title": "gitalyctl concurrency",
      "titleSize": "h6",
      "type": "row"
    },
    {
      "datasource": null,
      "description": "",
      "fieldConfig": {
        "defaults": {
          "decimals": 0,
          "displayName": "",
          "links": [

          ],
          "mappings": [

          ],
          "noValue": "Not Configured",
          "thresholds": {
            "mode": "absolute",
            "steps": [
              {
                "color": "",
                "value": null
              }
            ]
          },
          "unit": ""
        }
      },
      "gridPos": {
        "h": 10,
        "w": 6,
        "x": 0,
        "y": 1101
      },
      "id": 7,
      "links": [

      ],
      "options": {
        "colorMode": "none",
        "graphMode": "none",
        "justifyMode": "auto",
        "orientation": "vertical",
        "reduceOptions": {
          "calcs": [
            "lastNotNull"
          ],
          "fields": "",
          "values": false
        },
        "textMode": "auto"
      },
      "pluginVersion": "7",
      "targets": [
        {
          "expr": "gitalyctl_projects_storage_concurrency{container=\"gitalyctl\",env=\"ops\",environment=\"ops\",namespace=\"gitalyctl\"}\n",
          "format": "time_series",
          "instant": true,
          "interval": "1m",
          "intervalFactor": 1,
          "legendFormat": "",
          "refId": "A"
        }
      ],
      "title": "Storage Concurrency",
      "transformations": [

      ],
      "transparent": false,
      "type": "stat"
    },
    {
      "datasource": null,
      "description": "",
      "fieldConfig": {
        "defaults": {
          "decimals": 0,
          "displayName": "",
          "links": [

          ],
          "mappings": [

          ],
          "noValue": "Not Configured",
          "thresholds": {
            "mode": "absolute",
            "steps": [
              {
                "color": "",
                "value": null
              }
            ]
          },
          "unit": ""
        }
      },
      "gridPos": {
        "h": 10,
        "w": 6,
        "x": 6,
        "y": 1101
      },
      "id": 8,
      "links": [

      ],
      "options": {
        "colorMode": "none",
        "graphMode": "none",
        "justifyMode": "auto",
        "orientation": "vertical",
        "reduceOptions": {
          "calcs": [
            "lastNotNull"
          ],
          "fields": "",
          "values": false
        },
        "textMode": "auto"
      },
      "pluginVersion": "7",
      "targets": [
        {
          "expr": "gitalyctl_projects_repository_concurrency{container=\"gitalyctl\",env=\"ops\",environment=\"ops\",namespace=\"gitalyctl\"}\n",
          "format": "time_series",
          "instant": true,
          "interval": "1m",
          "intervalFactor": 1,
          "legendFormat": "",
          "refId": "A"
        }
      ],
      "title": "Projects Concurrency",
      "transformations": [

      ],
      "transparent": false,
      "type": "stat"
    },
    {
      "datasource": null,
      "description": "",
      "fieldConfig": {
        "defaults": {
          "decimals": 0,
          "displayName": "",
          "links": [

          ],
          "mappings": [

          ],
          "noValue": "Not Configured",
          "thresholds": {
            "mode": "absolute",
            "steps": [
              {
                "color": "",
                "value": null
              }
            ]
          },
          "unit": ""
        }
      },
      "gridPos": {
        "h": 10,
        "w": 6,
        "x": 12,
        "y": 1101
      },
      "id": 9,
      "links": [

      ],
      "options": {
        "colorMode": "none",
        "graphMode": "none",
        "justifyMode": "auto",
        "orientation": "vertical",
        "reduceOptions": {
          "calcs": [
            "lastNotNull"
          ],
          "fields": "",
          "values": false
        },
        "textMode": "auto"
      },
      "pluginVersion": "7",
      "targets": [
        {
          "expr": "gitalyctl_groups_repository_concurrency{container=\"gitalyctl\",env=\"ops\",environment=\"ops\",namespace=\"gitalyctl\"}\n",
          "format": "time_series",
          "instant": true,
          "interval": "1m",
          "intervalFactor": 1,
          "legendFormat": "",
          "refId": "A"
        }
      ],
      "title": "Groups Concurrency",
      "transformations": [

      ],
      "transparent": false,
      "type": "stat"
    },
    {
      "datasource": null,
      "description": "",
      "fieldConfig": {
        "defaults": {
          "decimals": 0,
          "displayName": "",
          "links": [

          ],
          "mappings": [

          ],
          "noValue": "Not Configured",
          "thresholds": {
            "mode": "absolute",
            "steps": [
              {
                "color": "",
                "value": null
              }
            ]
          },
          "unit": ""
        }
      },
      "gridPos": {
        "h": 10,
        "w": 6,
        "x": 18,
        "y": 1101
      },
      "id": 10,
      "links": [

      ],
      "options": {
        "colorMode": "none",
        "graphMode": "none",
        "justifyMode": "auto",
        "orientation": "vertical",
        "reduceOptions": {
          "calcs": [
            "lastNotNull"
          ],
          "fields": "",
          "values": false
        },
        "textMode": "auto"
      },
      "pluginVersion": "7",
      "targets": [
        {
          "expr": "gitalyctl_snippets_repository_concurrency{container=\"gitalyctl\",env=\"ops\",environment=\"ops\",namespace=\"gitalyctl\"}\n",
          "format": "time_series",
          "instant": true,
          "interval": "1m",
          "intervalFactor": 1,
          "legendFormat": "",
          "refId": "A"
        }
      ],
      "title": "Snippets Concurrency",
      "transformations": [

      ],
      "transparent": false,
      "type": "stat"
    },
    {
      "collapse": false,
      "collapsed": false,
      "gridPos": {
        "h": 1,
        "w": 24,
        "x": 0,
        "y": 1200
      },
      "id": 11,
      "panels": [

      ],
      "repeat": null,
      "repeatIteration": null,
      "repeatRowId": null,
      "showTitle": true,
      "title": "gitalyctl logs",
      "titleSize": "h6",
      "type": "row"
    },
    {
      "aliasColors": {
      },
      "bars": false,
      "dashLength": 10,
      "dashes": false,
      "datasource": "ops",
      "decimals": 0,
      "description": "How many info logs we have for gitalyctl",
      "fill": 0,
      "fillGradient": 0,
      "gridPos": {
        "h": 10,
        "w": 12,
        "x": 0,
        "y": 1201
      },
      "id": 12,
      "legend": {
        "alignAsTable": true,
        "avg": true,
        "current": true,
        "hideEmpty": true,
        "max": true,
        "min": true,
        "rightSide": false,
        "show": true,
        "sideWidth": null,
        "total": false,
        "values": true
      },
      "lines": true,
      "linewidth": 2,
      "links": [

      ],
      "nullPointMode": "null",
      "percentage": false,
      "pointradius": 5,
      "points": false,
      "renderer": "flot",
      "repeat": null,
      "seriesOverrides": [

      ],
      "spaceLength": 10,
      "stack": false,
      "steppedLine": false,
      "targets": [
        {
          "expr": "count_over_time({namespace=\"gitalyctl\", container=\"gitalyctl\"} |= `info` [$__interval])\n",
          "format": "time_series",
          "interval": "1m",
          "intervalFactor": 1,
          "legendFormat": "{{ storage }}",
          "refId": "A"
        }
      ],
      "thresholds": [

      ],
      "timeFrom": null,
      "timeShift": null,
      "title": "Info Logs",
      "tooltip": {
        "shared": true,
        "sort": 2,
        "value_type": "individual"
      },
      "type": "graph",
      "xaxis": {
        "buckets": null,
        "mode": "time",
        "name": null,
        "show": true,
        "values": [

        ]
      },
      "yaxes": [
        {
          "format": "short",
          "label": "",
          "logBase": 1,
          "max": null,
          "min": 0,
          "show": true
        },
        {
          "format": "short",
          "label": null,
          "logBase": 1,
          "max": 1,
          "min": 0,
          "show": false
        }
      ]
    },
    {
      "aliasColors": {
      },
      "bars": false,
      "dashLength": 10,
      "dashes": false,
      "datasource": "ops",
      "decimals": 0,
      "description": "How many error logs we have for gitalyctl",
      "fill": 0,
      "fillGradient": 0,
      "gridPos": {
        "h": 10,
        "w": 12,
        "x": 12,
        "y": 1201
      },
      "id": 13,
      "legend": {
        "alignAsTable": true,
        "avg": true,
        "current": true,
        "hideEmpty": true,
        "max": true,
        "min": true,
        "rightSide": false,
        "show": true,
        "sideWidth": null,
        "total": false,
        "values": true
      },
      "lines": true,
      "linewidth": 2,
      "links": [

      ],
      "nullPointMode": "null",
      "percentage": false,
      "pointradius": 5,
      "points": false,
      "renderer": "flot",
      "repeat": null,
      "seriesOverrides": [

      ],
      "spaceLength": 10,
      "stack": false,
      "steppedLine": false,
      "targets": [
        {
          "expr": "count_over_time({namespace=\"gitalyctl\", container=\"gitalyctl\"} | json level=\"level\" | level = `error` [$__interval])\n",
          "format": "time_series",
          "interval": "1m",
          "intervalFactor": 1,
          "legendFormat": "{{ storage }}",
          "refId": "A"
        }
      ],
      "thresholds": [

      ],
      "timeFrom": null,
      "timeShift": null,
      "title": "Error Logs",
      "tooltip": {
        "shared": true,
        "sort": 2,
        "value_type": "individual"
      },
      "type": "graph",
      "xaxis": {
        "buckets": null,
        "mode": "time",
        "name": null,
        "show": true,
        "values": [

        ]
      },
      "yaxes": [
        {
          "format": "short",
          "label": "",
          "logBase": 1,
          "max": null,
          "min": 0,
          "show": true
        },
        {
          "format": "short",
          "label": null,
          "logBase": 1,
          "max": 1,
          "min": 0,
          "show": false
        }
      ]
    },
    {
      "collapse": false,
      "collapsed": false,
      "gridPos": {
        "h": 1,
        "w": 24,
        "x": 0,
        "y": 1300
      },
      "id": 14,
      "panels": [

      ],
      "repeat": null,
      "repeatIteration": null,
      "repeatRowId": null,
      "showTitle": true,
      "title": "gitalyctl projects repositories",
      "titleSize": "h6",
      "type": "row"
    },
    {
      "aliasColors": {
      },
      "bars": false,
      "dashLength": 10,
      "dashes": false,
      "datasource": "$PROMETHEUS_DS",
      "decimals": 0,
      "description": "Total number of moves per storage that are currently happening.",
      "fill": 0,
      "fillGradient": 0,
      "gridPos": {
        "h": 10,
        "w": 6,
        "x": 0,
        "y": 1301
      },
      "id": 15,
      "legend": {
        "alignAsTable": true,
        "avg": true,
        "current": true,
        "hideEmpty": true,
        "max": true,
        "min": true,
        "rightSide": false,
        "show": true,
        "sideWidth": null,
        "total": false,
        "values": true
      },
      "lines": true,
      "linewidth": 2,
      "links": [

      ],
      "nullPointMode": "null",
      "percentage": false,
      "pointradius": 5,
      "points": false,
      "renderer": "flot",
      "repeat": null,
      "seriesOverrides": [

      ],
      "spaceLength": 10,
      "stack": false,
      "steppedLine": false,
      "targets": [
        {
          "expr": "sum by (storage) (gitalyctl_projects_active_repository_moves{container=\"gitalyctl\",env=\"ops\",environment=\"ops\",namespace=\"gitalyctl\"})\n",
          "format": "time_series",
          "interval": "1m",
          "intervalFactor": 1,
          "legendFormat": "{{ storage }}",
          "refId": "A"
        }
      ],
      "thresholds": [

      ],
      "timeFrom": null,
      "timeShift": null,
      "title": "Active moves",
      "tooltip": {
        "shared": true,
        "sort": 2,
        "value_type": "individual"
      },
      "type": "graph",
      "xaxis": {
        "buckets": null,
        "mode": "time",
        "name": null,
        "show": true,
        "values": [

        ]
      },
      "yaxes": [
        {
          "format": "short",
          "label": "",
          "logBase": 1,
          "max": null,
          "min": 0,
          "show": true
        },
        {
          "format": "short",
          "label": null,
          "logBase": 1,
          "max": 1,
          "min": 0,
          "show": false
        }
      ]
    },
    {
      "aliasColors": {
      },
      "bars": false,
      "dashLength": 10,
      "dashes": false,
      "datasource": "$PROMETHEUS_DS",
      "decimals": 0,
      "description": "Rate/sec of successful projects repository moves.",
      "fill": 0,
      "fillGradient": 0,
      "gridPos": {
        "h": 10,
        "w": 6,
        "x": 6,
        "y": 1301
      },
      "id": 16,
      "legend": {
        "alignAsTable": true,
        "avg": true,
        "current": true,
        "hideEmpty": true,
        "max": true,
        "min": true,
        "rightSide": false,
        "show": true,
        "sideWidth": null,
        "total": false,
        "values": true
      },
      "lines": true,
      "linewidth": 2,
      "links": [

      ],
      "nullPointMode": "null",
      "percentage": false,
      "pointradius": 5,
      "points": false,
      "renderer": "flot",
      "repeat": null,
      "seriesOverrides": [

      ],
      "spaceLength": 10,
      "stack": false,
      "steppedLine": false,
      "targets": [
        {
          "expr": "sum by (storage) (rate(gitalyctl_projects_successful_repository_moves_total{container=\"gitalyctl\",env=\"ops\",environment=\"ops\",namespace=\"gitalyctl\"}[$__rate_interval]))\n",
          "format": "time_series",
          "interval": "1m",
          "intervalFactor": 1,
          "legendFormat": "{{ storage }}",
          "refId": "A"
        }
      ],
      "thresholds": [

      ],
      "timeFrom": null,
      "timeShift": null,
      "title": "Success rate",
      "tooltip": {
        "shared": true,
        "sort": 2,
        "value_type": "individual"
      },
      "type": "graph",
      "xaxis": {
        "buckets": null,
        "mode": "time",
        "name": null,
        "show": true,
        "values": [

        ]
      },
      "yaxes": [
        {
          "format": "short",
          "label": "",
          "logBase": 1,
          "max": null,
          "min": 0,
          "show": true
        },
        {
          "format": "short",
          "label": null,
          "logBase": 1,
          "max": 1,
          "min": 0,
          "show": false
        }
      ]
    },
    {
      "aliasColors": {
      },
      "bars": false,
      "dashLength": 10,
      "dashes": false,
      "datasource": "$PROMETHEUS_DS",
      "decimals": 0,
      "description": "Rate/sec of failed projects repository moves.",
      "fill": 0,
      "fillGradient": 0,
      "gridPos": {
        "h": 10,
        "w": 6,
        "x": 12,
        "y": 1301
      },
      "id": 17,
      "legend": {
        "alignAsTable": true,
        "avg": true,
        "current": true,
        "hideEmpty": true,
        "max": true,
        "min": true,
        "rightSide": false,
        "show": true,
        "sideWidth": null,
        "total": false,
        "values": true
      },
      "lines": true,
      "linewidth": 2,
      "links": [

      ],
      "nullPointMode": "null",
      "percentage": false,
      "pointradius": 5,
      "points": false,
      "renderer": "flot",
      "repeat": null,
      "seriesOverrides": [

      ],
      "spaceLength": 10,
      "stack": false,
      "steppedLine": false,
      "targets": [
        {
          "expr": "sum by (storage) (rate(gitalyctl_projects_failed_repository_moves_total{container=\"gitalyctl\",env=\"ops\",environment=\"ops\",namespace=\"gitalyctl\"}[$__rate_interval]))\n",
          "format": "time_series",
          "interval": "1m",
          "intervalFactor": 1,
          "legendFormat": "{{ storage }}",
          "refId": "A"
        }
      ],
      "thresholds": [

      ],
      "timeFrom": null,
      "timeShift": null,
      "title": "Failure rate",
      "tooltip": {
        "shared": true,
        "sort": 2,
        "value_type": "individual"
      },
      "type": "graph",
      "xaxis": {
        "buckets": null,
        "mode": "time",
        "name": null,
        "show": true,
        "values": [

        ]
      },
      "yaxes": [
        {
          "format": "short",
          "label": "",
          "logBase": 1,
          "max": null,
          "min": 0,
          "show": true
        },
        {
          "format": "short",
          "label": null,
          "logBase": 1,
          "max": 1,
          "min": 0,
          "show": false
        }
      ]
    },
    {
      "aliasColors": {
      },
      "bars": false,
      "dashLength": 10,
      "dashes": false,
      "datasource": "$PROMETHEUS_DS",
      "decimals": 0,
      "description": "Rate/sec of projects repository moves that tiemout. The timeout is set by project.move_timeout configuration. However, reaching this timeout doesn't necessarily indicate the success or failure of the repository move.",
      "fill": 0,
      "fillGradient": 0,
      "gridPos": {
        "h": 10,
        "w": 6,
        "x": 18,
        "y": 1301
      },
      "id": 18,
      "legend": {
        "alignAsTable": true,
        "avg": true,
        "current": true,
        "hideEmpty": true,
        "max": true,
        "min": true,
        "rightSide": false,
        "show": true,
        "sideWidth": null,
        "total": false,
        "values": true
      },
      "lines": true,
      "linewidth": 2,
      "links": [

      ],
      "nullPointMode": "null",
      "percentage": false,
      "pointradius": 5,
      "points": false,
      "renderer": "flot",
      "repeat": null,
      "seriesOverrides": [

      ],
      "spaceLength": 10,
      "stack": false,
      "steppedLine": false,
      "targets": [
        {
          "expr": "sum by (storage) (rate(gitalyctl_projects_timed_out_repository_moves_total{container=\"gitalyctl\",env=\"ops\",environment=\"ops\",namespace=\"gitalyctl\"}[$__rate_interval]))\n",
          "format": "time_series",
          "interval": "1m",
          "intervalFactor": 1,
          "legendFormat": "{{ storage }}",
          "refId": "A"
        }
      ],
      "thresholds": [

      ],
      "timeFrom": null,
      "timeShift": null,
      "title": "Wait timeout rate",
      "tooltip": {
        "shared": true,
        "sort": 2,
        "value_type": "individual"
      },
      "type": "graph",
      "xaxis": {
        "buckets": null,
        "mode": "time",
        "name": null,
        "show": true,
        "values": [

        ]
      },
      "yaxes": [
        {
          "format": "short",
          "label": "",
          "logBase": 1,
          "max": null,
          "min": 0,
          "show": true
        },
        {
          "format": "short",
          "label": null,
          "logBase": 1,
          "max": 1,
          "min": 0,
          "show": false
        }
      ]
    },
    {
      "collapse": false,
      "collapsed": false,
      "gridPos": {
        "h": 1,
        "w": 24,
        "x": 0,
        "y": 1400
      },
      "id": 19,
      "panels": [

      ],
      "repeat": null,
      "repeatIteration": null,
      "repeatRowId": null,
      "showTitle": true,
      "title": "gitalyctl groups repositories",
      "titleSize": "h6",
      "type": "row"
    },
    {
      "aliasColors": {
      },
      "bars": false,
      "dashLength": 10,
      "dashes": false,
      "datasource": "$PROMETHEUS_DS",
      "decimals": 0,
      "description": "Total number of moves per storage that are currently happening.",
      "fill": 0,
      "fillGradient": 0,
      "gridPos": {
        "h": 10,
        "w": 6,
        "x": 0,
        "y": 1401
      },
      "id": 20,
      "legend": {
        "alignAsTable": true,
        "avg": true,
        "current": true,
        "hideEmpty": true,
        "max": true,
        "min": true,
        "rightSide": false,
        "show": true,
        "sideWidth": null,
        "total": false,
        "values": true
      },
      "lines": true,
      "linewidth": 2,
      "links": [

      ],
      "nullPointMode": "null",
      "percentage": false,
      "pointradius": 5,
      "points": false,
      "renderer": "flot",
      "repeat": null,
      "seriesOverrides": [

      ],
      "spaceLength": 10,
      "stack": false,
      "steppedLine": false,
      "targets": [
        {
          "expr": "sum by (storage) (gitalyctl_groups_active_repository_moves{container=\"gitalyctl\",env=\"ops\",environment=\"ops\",namespace=\"gitalyctl\"})\n",
          "format": "time_series",
          "interval": "1m",
          "intervalFactor": 1,
          "legendFormat": "{{ storage }}",
          "refId": "A"
        }
      ],
      "thresholds": [

      ],
      "timeFrom": null,
      "timeShift": null,
      "title": "Active moves",
      "tooltip": {
        "shared": true,
        "sort": 2,
        "value_type": "individual"
      },
      "type": "graph",
      "xaxis": {
        "buckets": null,
        "mode": "time",
        "name": null,
        "show": true,
        "values": [

        ]
      },
      "yaxes": [
        {
          "format": "short",
          "label": "",
          "logBase": 1,
          "max": null,
          "min": 0,
          "show": true
        },
        {
          "format": "short",
          "label": null,
          "logBase": 1,
          "max": 1,
          "min": 0,
          "show": false
        }
      ]
    },
    {
      "aliasColors": {
      },
      "bars": false,
      "dashLength": 10,
      "dashes": false,
      "datasource": "$PROMETHEUS_DS",
      "decimals": 0,
      "description": "Rate/sec of successful groups repository moves.",
      "fill": 0,
      "fillGradient": 0,
      "gridPos": {
        "h": 10,
        "w": 6,
        "x": 6,
        "y": 1401
      },
      "id": 21,
      "legend": {
        "alignAsTable": true,
        "avg": true,
        "current": true,
        "hideEmpty": true,
        "max": true,
        "min": true,
        "rightSide": false,
        "show": true,
        "sideWidth": null,
        "total": false,
        "values": true
      },
      "lines": true,
      "linewidth": 2,
      "links": [

      ],
      "nullPointMode": "null",
      "percentage": false,
      "pointradius": 5,
      "points": false,
      "renderer": "flot",
      "repeat": null,
      "seriesOverrides": [

      ],
      "spaceLength": 10,
      "stack": false,
      "steppedLine": false,
      "targets": [
        {
          "expr": "sum by (storage) (rate(gitalyctl_groups_successful_repository_moves_total{container=\"gitalyctl\",env=\"ops\",environment=\"ops\",namespace=\"gitalyctl\"}[$__rate_interval]))\n",
          "format": "time_series",
          "interval": "1m",
          "intervalFactor": 1,
          "legendFormat": "{{ storage }}",
          "refId": "A"
        }
      ],
      "thresholds": [

      ],
      "timeFrom": null,
      "timeShift": null,
      "title": "Success rate",
      "tooltip": {
        "shared": true,
        "sort": 2,
        "value_type": "individual"
      },
      "type": "graph",
      "xaxis": {
        "buckets": null,
        "mode": "time",
        "name": null,
        "show": true,
        "values": [

        ]
      },
      "yaxes": [
        {
          "format": "short",
          "label": "",
          "logBase": 1,
          "max": null,
          "min": 0,
          "show": true
        },
        {
          "format": "short",
          "label": null,
          "logBase": 1,
          "max": 1,
          "min": 0,
          "show": false
        }
      ]
    },
    {
      "aliasColors": {
      },
      "bars": false,
      "dashLength": 10,
      "dashes": false,
      "datasource": "$PROMETHEUS_DS",
      "decimals": 0,
      "description": "Rate/sec of failed groups repository moves.",
      "fill": 0,
      "fillGradient": 0,
      "gridPos": {
        "h": 10,
        "w": 6,
        "x": 12,
        "y": 1401
      },
      "id": 22,
      "legend": {
        "alignAsTable": true,
        "avg": true,
        "current": true,
        "hideEmpty": true,
        "max": true,
        "min": true,
        "rightSide": false,
        "show": true,
        "sideWidth": null,
        "total": false,
        "values": true
      },
      "lines": true,
      "linewidth": 2,
      "links": [

      ],
      "nullPointMode": "null",
      "percentage": false,
      "pointradius": 5,
      "points": false,
      "renderer": "flot",
      "repeat": null,
      "seriesOverrides": [

      ],
      "spaceLength": 10,
      "stack": false,
      "steppedLine": false,
      "targets": [
        {
          "expr": "sum by (storage) (rate(gitalyctl_groups_failed_repository_moves_total{container=\"gitalyctl\",env=\"ops\",environment=\"ops\",namespace=\"gitalyctl\"}[$__rate_interval]))\n",
          "format": "time_series",
          "interval": "1m",
          "intervalFactor": 1,
          "legendFormat": "{{ storage }}",
          "refId": "A"
        }
      ],
      "thresholds": [

      ],
      "timeFrom": null,
      "timeShift": null,
      "title": "Failure rate",
      "tooltip": {
        "shared": true,
        "sort": 2,
        "value_type": "individual"
      },
      "type": "graph",
      "xaxis": {
        "buckets": null,
        "mode": "time",
        "name": null,
        "show": true,
        "values": [

        ]
      },
      "yaxes": [
        {
          "format": "short",
          "label": "",
          "logBase": 1,
          "max": null,
          "min": 0,
          "show": true
        },
        {
          "format": "short",
          "label": null,
          "logBase": 1,
          "max": 1,
          "min": 0,
          "show": false
        }
      ]
    },
    {
      "aliasColors": {
      },
      "bars": false,
      "dashLength": 10,
      "dashes": false,
      "datasource": "$PROMETHEUS_DS",
      "decimals": 0,
      "description": "Rate/sec of groups repository moves that tiemout. The timeout is set by project.move_timeout configuration. However, reaching this timeout doesn't necessarily indicate the success or failure of the repository move.",
      "fill": 0,
      "fillGradient": 0,
      "gridPos": {
        "h": 10,
        "w": 6,
        "x": 18,
        "y": 1401
      },
      "id": 23,
      "legend": {
        "alignAsTable": true,
        "avg": true,
        "current": true,
        "hideEmpty": true,
        "max": true,
        "min": true,
        "rightSide": false,
        "show": true,
        "sideWidth": null,
        "total": false,
        "values": true
      },
      "lines": true,
      "linewidth": 2,
      "links": [

      ],
      "nullPointMode": "null",
      "percentage": false,
      "pointradius": 5,
      "points": false,
      "renderer": "flot",
      "repeat": null,
      "seriesOverrides": [

      ],
      "spaceLength": 10,
      "stack": false,
      "steppedLine": false,
      "targets": [
        {
          "expr": "sum by (storage) (rate(gitalyctl_groups_timed_out_repository_moves_total{container=\"gitalyctl\",env=\"ops\",environment=\"ops\",namespace=\"gitalyctl\"}[$__rate_interval]))\n",
          "format": "time_series",
          "interval": "1m",
          "intervalFactor": 1,
          "legendFormat": "{{ storage }}",
          "refId": "A"
        }
      ],
      "thresholds": [

      ],
      "timeFrom": null,
      "timeShift": null,
      "title": "Wait timeout rate",
      "tooltip": {
        "shared": true,
        "sort": 2,
        "value_type": "individual"
      },
      "type": "graph",
      "xaxis": {
        "buckets": null,
        "mode": "time",
        "name": null,
        "show": true,
        "values": [

        ]
      },
      "yaxes": [
        {
          "format": "short",
          "label": "",
          "logBase": 1,
          "max": null,
          "min": 0,
          "show": true
        },
        {
          "format": "short",
          "label": null,
          "logBase": 1,
          "max": 1,
          "min": 0,
          "show": false
        }
      ]
    },
    {
      "collapse": false,
      "collapsed": false,
      "gridPos": {
        "h": 1,
        "w": 24,
        "x": 0,
        "y": 1500
      },
      "id": 24,
      "panels": [

      ],
      "repeat": null,
      "repeatIteration": null,
      "repeatRowId": null,
      "showTitle": true,
      "title": "gitalyctl snippets repositories",
      "titleSize": "h6",
      "type": "row"
    },
    {
      "aliasColors": {
      },
      "bars": false,
      "dashLength": 10,
      "dashes": false,
      "datasource": "$PROMETHEUS_DS",
      "decimals": 0,
      "description": "Total number of moves per storage that are currently happening.",
      "fill": 0,
      "fillGradient": 0,
      "gridPos": {
        "h": 10,
        "w": 6,
        "x": 0,
        "y": 1501
      },
      "id": 25,
      "legend": {
        "alignAsTable": true,
        "avg": true,
        "current": true,
        "hideEmpty": true,
        "max": true,
        "min": true,
        "rightSide": false,
        "show": true,
        "sideWidth": null,
        "total": false,
        "values": true
      },
      "lines": true,
      "linewidth": 2,
      "links": [

      ],
      "nullPointMode": "null",
      "percentage": false,
      "pointradius": 5,
      "points": false,
      "renderer": "flot",
      "repeat": null,
      "seriesOverrides": [

      ],
      "spaceLength": 10,
      "stack": false,
      "steppedLine": false,
      "targets": [
        {
          "expr": "sum by (storage) (gitalyctl_snippets_active_repository_moves{container=\"gitalyctl\",env=\"ops\",environment=\"ops\",namespace=\"gitalyctl\"})\n",
          "format": "time_series",
          "interval": "1m",
          "intervalFactor": 1,
          "legendFormat": "{{ storage }}",
          "refId": "A"
        }
      ],
      "thresholds": [

      ],
      "timeFrom": null,
      "timeShift": null,
      "title": "Active moves",
      "tooltip": {
        "shared": true,
        "sort": 2,
        "value_type": "individual"
      },
      "type": "graph",
      "xaxis": {
        "buckets": null,
        "mode": "time",
        "name": null,
        "show": true,
        "values": [

        ]
      },
      "yaxes": [
        {
          "format": "short",
          "label": "",
          "logBase": 1,
          "max": null,
          "min": 0,
          "show": true
        },
        {
          "format": "short",
          "label": null,
          "logBase": 1,
          "max": 1,
          "min": 0,
          "show": false
        }
      ]
    },
    {
      "aliasColors": {
      },
      "bars": false,
      "dashLength": 10,
      "dashes": false,
      "datasource": "$PROMETHEUS_DS",
      "decimals": 0,
      "description": "Rate/sec of successful snippets repository moves.",
      "fill": 0,
      "fillGradient": 0,
      "gridPos": {
        "h": 10,
        "w": 6,
        "x": 6,
        "y": 1501
      },
      "id": 26,
      "legend": {
        "alignAsTable": true,
        "avg": true,
        "current": true,
        "hideEmpty": true,
        "max": true,
        "min": true,
        "rightSide": false,
        "show": true,
        "sideWidth": null,
        "total": false,
        "values": true
      },
      "lines": true,
      "linewidth": 2,
      "links": [

      ],
      "nullPointMode": "null",
      "percentage": false,
      "pointradius": 5,
      "points": false,
      "renderer": "flot",
      "repeat": null,
      "seriesOverrides": [

      ],
      "spaceLength": 10,
      "stack": false,
      "steppedLine": false,
      "targets": [
        {
          "expr": "sum by (storage) (rate(gitalyctl_snippets_successful_repository_moves_total{container=\"gitalyctl\",env=\"ops\",environment=\"ops\",namespace=\"gitalyctl\"}[$__rate_interval]))\n",
          "format": "time_series",
          "interval": "1m",
          "intervalFactor": 1,
          "legendFormat": "{{ storage }}",
          "refId": "A"
        }
      ],
      "thresholds": [

      ],
      "timeFrom": null,
      "timeShift": null,
      "title": "Success rate",
      "tooltip": {
        "shared": true,
        "sort": 2,
        "value_type": "individual"
      },
      "type": "graph",
      "xaxis": {
        "buckets": null,
        "mode": "time",
        "name": null,
        "show": true,
        "values": [

        ]
      },
      "yaxes": [
        {
          "format": "short",
          "label": "",
          "logBase": 1,
          "max": null,
          "min": 0,
          "show": true
        },
        {
          "format": "short",
          "label": null,
          "logBase": 1,
          "max": 1,
          "min": 0,
          "show": false
        }
      ]
    },
    {
      "aliasColors": {
      },
      "bars": false,
      "dashLength": 10,
      "dashes": false,
      "datasource": "$PROMETHEUS_DS",
      "decimals": 0,
      "description": "Rate/sec of failed snippets repository moves.",
      "fill": 0,
      "fillGradient": 0,
      "gridPos": {
        "h": 10,
        "w": 6,
        "x": 12,
        "y": 1501
      },
      "id": 27,
      "legend": {
        "alignAsTable": true,
        "avg": true,
        "current": true,
        "hideEmpty": true,
        "max": true,
        "min": true,
        "rightSide": false,
        "show": true,
        "sideWidth": null,
        "total": false,
        "values": true
      },
      "lines": true,
      "linewidth": 2,
      "links": [

      ],
      "nullPointMode": "null",
      "percentage": false,
      "pointradius": 5,
      "points": false,
      "renderer": "flot",
      "repeat": null,
      "seriesOverrides": [

      ],
      "spaceLength": 10,
      "stack": false,
      "steppedLine": false,
      "targets": [
        {
          "expr": "sum by (storage) (rate(gitalyctl_snippets_failed_repository_moves_total{container=\"gitalyctl\",env=\"ops\",environment=\"ops\",namespace=\"gitalyctl\"}[$__rate_interval]))\n",
          "format": "time_series",
          "interval": "1m",
          "intervalFactor": 1,
          "legendFormat": "{{ storage }}",
          "refId": "A"
        }
      ],
      "thresholds": [

      ],
      "timeFrom": null,
      "timeShift": null,
      "title": "Failure rate",
      "tooltip": {
        "shared": true,
        "sort": 2,
        "value_type": "individual"
      },
      "type": "graph",
      "xaxis": {
        "buckets": null,
        "mode": "time",
        "name": null,
        "show": true,
        "values": [

        ]
      },
      "yaxes": [
        {
          "format": "short",
          "label": "",
          "logBase": 1,
          "max": null,
          "min": 0,
          "show": true
        },
        {
          "format": "short",
          "label": null,
          "logBase": 1,
          "max": 1,
          "min": 0,
          "show": false
        }
      ]
    },
    {
      "aliasColors": {
      },
      "bars": false,
      "dashLength": 10,
      "dashes": false,
      "datasource": "$PROMETHEUS_DS",
      "decimals": 0,
      "description": "Rate/sec of snippets repository moves that tiemout. The timeout is set by project.move_timeout configuration. However, reaching this timeout doesn't necessarily indicate the success or failure of the repository move.",
      "fill": 0,
      "fillGradient": 0,
      "gridPos": {
        "h": 10,
        "w": 6,
        "x": 18,
        "y": 1501
      },
      "id": 28,
      "legend": {
        "alignAsTable": true,
        "avg": true,
        "current": true,
        "hideEmpty": true,
        "max": true,
        "min": true,
        "rightSide": false,
        "show": true,
        "sideWidth": null,
        "total": false,
        "values": true
      },
      "lines": true,
      "linewidth": 2,
      "links": [

      ],
      "nullPointMode": "null",
      "percentage": false,
      "pointradius": 5,
      "points": false,
      "renderer": "flot",
      "repeat": null,
      "seriesOverrides": [

      ],
      "spaceLength": 10,
      "stack": false,
      "steppedLine": false,
      "targets": [
        {
          "expr": "sum by (storage) (rate(gitalyctl_snippets_timed_out_repository_moves_total{container=\"gitalyctl\",env=\"ops\",environment=\"ops\",namespace=\"gitalyctl\"}[$__rate_interval]))\n",
          "format": "time_series",
          "interval": "1m",
          "intervalFactor": 1,
          "legendFormat": "{{ storage }}",
          "refId": "A"
        }
      ],
      "thresholds": [

      ],
      "timeFrom": null,
      "timeShift": null,
      "title": "Wait timeout rate",
      "tooltip": {
        "shared": true,
        "sort": 2,
        "value_type": "individual"
      },
      "type": "graph",
      "xaxis": {
        "buckets": null,
        "mode": "time",
        "name": null,
        "show": true,
        "values": [

        ]
      },
      "yaxes": [
        {
          "format": "short",
          "label": "",
          "logBase": 1,
          "max": null,
          "min": 0,
          "show": true
        },
        {
          "format": "short",
          "label": null,
          "logBase": 1,
          "max": 1,
          "min": 0,
          "show": false
        }
      ]
    },
    {
      "collapse": false,
      "collapsed": false,
      "gridPos": {
        "h": 1,
        "w": 24,
        "x": 0,
        "y": 1600
      },
      "id": 29,
      "panels": [

      ],
      "repeat": null,
      "repeatIteration": null,
      "repeatRowId": null,
      "showTitle": true,
      "title": "USE method gitalyctl deployment",
      "titleSize": "h6",
      "type": "row"
    },
    {
      "aliasColors": {
      },
      "bars": false,
      "dashLength": 10,
      "dashes": false,
      "datasource": "$PROMETHEUS_DS",
      "decimals": 0,
      "description": "",
      "fill": 0,
      "fillGradient": 0,
      "gridPos": {
        "h": 10,
        "w": 12,
        "x": 0,
        "y": 1601
      },
      "id": 30,
      "legend": {
        "alignAsTable": true,
        "avg": true,
        "current": true,
        "hideEmpty": true,
        "max": true,
        "min": true,
        "rightSide": false,
        "show": true,
        "sideWidth": null,
        "total": false,
        "values": true
      },
      "lines": true,
      "linewidth": 2,
      "links": [

      ],
      "nullPointMode": "null",
      "percentage": false,
      "pointradius": 5,
      "points": false,
      "renderer": "flot",
      "repeat": null,
      "seriesOverrides": [

      ],
      "spaceLength": 10,
      "stack": false,
      "steppedLine": false,
      "targets": [
        {
          "expr": "rate(container_cpu_usage_seconds_total{container=\"gitalyctl\",env=\"ops\",environment=\"ops\",namespace=\"gitalyctl\"}[$__rate_interval])\n",
          "format": "time_series",
          "interval": "1m",
          "intervalFactor": 1,
          "legendFormat": "{{ cpu }}",
          "refId": "A"
        },
        {
          "expr": "kube_pod_container_resource_limits{container=\"gitalyctl\",env=\"ops\",environment=\"ops\",namespace=\"gitalyctl\", unit=\"core\"}\n",
          "format": "time_series",
          "interval": "1m",
          "intervalFactor": 1,
          "legendFormat": "limit",
          "refId": "B"
        },
        {
          "expr": "kube_pod_container_resource_requests{container=\"gitalyctl\",env=\"ops\",environment=\"ops\",namespace=\"gitalyctl\", unit=\"core\"}\n",
          "format": "time_series",
          "interval": "1m",
          "intervalFactor": 1,
          "legendFormat": "request",
          "refId": "C"
        }
      ],
      "thresholds": [

      ],
      "timeFrom": null,
      "timeShift": null,
      "title": "CPU",
      "tooltip": {
        "shared": true,
        "sort": 2,
        "value_type": "individual"
      },
      "type": "graph",
      "xaxis": {
        "buckets": null,
        "mode": "time",
        "name": null,
        "show": true,
        "values": [

        ]
      },
      "yaxes": [
        {
          "format": "short",
          "label": "",
          "logBase": 1,
          "max": null,
          "min": 0,
          "show": true
        },
        {
          "format": "short",
          "label": null,
          "logBase": 1,
          "max": 1,
          "min": 0,
          "show": false
        }
      ]
    },
    {
      "aliasColors": {
      },
      "bars": false,
      "dashLength": 10,
      "dashes": false,
      "datasource": "$PROMETHEUS_DS",
      "decimals": 0,
      "description": "",
      "fill": 0,
      "fillGradient": 0,
      "gridPos": {
        "h": 10,
        "w": 12,
        "x": 12,
        "y": 1601
      },
      "id": 31,
      "legend": {
        "alignAsTable": true,
        "avg": true,
        "current": true,
        "hideEmpty": true,
        "max": true,
        "min": true,
        "rightSide": false,
        "show": true,
        "sideWidth": null,
        "total": false,
        "values": true
      },
      "lines": true,
      "linewidth": 2,
      "links": [

      ],
      "nullPointMode": "null",
      "percentage": false,
      "pointradius": 5,
      "points": false,
      "renderer": "flot",
      "repeat": null,
      "seriesOverrides": [

      ],
      "spaceLength": 10,
      "stack": false,
      "steppedLine": false,
      "targets": [
        {
          "expr": "rate(container_memory_usage_bytes{container=\"gitalyctl\",env=\"ops\",environment=\"ops\",namespace=\"gitalyctl\"}[$__rate_interval])\n",
          "format": "time_series",
          "interval": "1m",
          "intervalFactor": 1,
          "legendFormat": "current",
          "refId": "A"
        },
        {
          "expr": "kube_pod_container_resource_limits{container=\"gitalyctl\",env=\"ops\",environment=\"ops\",namespace=\"gitalyctl\", unit=\"byte\"}\n",
          "format": "time_series",
          "interval": "1m",
          "intervalFactor": 1,
          "legendFormat": "limit",
          "refId": "B"
        },
        {
          "expr": "kube_pod_container_resource_requests{container=\"gitalyctl\",env=\"ops\",environment=\"ops\",namespace=\"gitalyctl\", unit=\"byte\"}\n",
          "format": "time_series",
          "interval": "1m",
          "intervalFactor": 1,
          "legendFormat": "request",
          "refId": "C"
        }
      ],
      "thresholds": [

      ],
      "timeFrom": null,
      "timeShift": null,
      "title": "Memory",
      "tooltip": {
        "shared": true,
        "sort": 2,
        "value_type": "individual"
      },
      "type": "graph",
      "xaxis": {
        "buckets": null,
        "mode": "time",
        "name": null,
        "show": true,
        "values": [

        ]
      },
      "yaxes": [
        {
          "format": "bytes",
          "label": "",
          "logBase": 1,
          "max": null,
          "min": 0,
          "show": true
        },
        {
          "format": "short",
          "label": null,
          "logBase": 1,
          "max": 1,
          "min": 0,
          "show": false
        }
      ]
    },
    {
      "content": "Made with ❤️ and [Grafonnet](https://github.com/grafana/grafonnet-lib). [Contribute to this dashboard on GitLab.com](https://gitlab.com/gitlab-com/runbooks/blob/master/dashboards)\n",
      "datasource": null,
      "gridPos": {
        "h": 2,
        "w": 24,
        "x": 0,
        "y": 110000
      },
      "id": 32,
      "mode": "markdown",
      "title": "Source",
      "type": "text"
    }
  ],
  "refresh": "",
  "rows": [

  ],
  "schemaVersion": 16,
  "style": "light",
  "tags": [
    "managed",
    "gitaly",
    "gitaly",
    "type:gitaly"
  ],
  "templating": {
    "list": [
      {
        "current": {
          "text": "Global",
          "value": "Global"
        },
        "hide": 0,
        "label": null,
        "name": "PROMETHEUS_DS",
        "options": [

        ],
        "query": "prometheus",
        "refresh": 1,
        "regex": "",
        "type": "datasource"
      },
      {
        "allValue": null,
        "current": {
          "text": "gprd",
          "value": "gprd"
        },
        "datasource": "$PROMETHEUS_DS",
        "hide": 0,
        "includeAll": false,
        "label": null,
        "multi": false,
        "name": "environment",
        "options": [

        ],
        "query": "label_values(gitlab_service_ops:rate, environment)",
        "refresh": 1,
        "regex": "",
        "sort": 1,
        "tagValuesQuery": "",
        "tags": [

        ],
        "tagsQuery": "",
        "type": "query",
        "useTags": false
      }
    ]
  },
  "time": {
    "from": "now-6h/m",
    "to": "now/m"
  },
  "timepicker": {
    "refresh_intervals": [
      "1m",
      "5m",
      "10m",
      "15m",
      "30m"
    ],
    "time_options": [
      "5m",
      "15m",
      "1h",
      "6h",
      "12h",
      "24h",
      "2d",
      "7d",
      "30d"
    ]
  },
  "timezone": "utc",
  "title": "gitaly: Gitaly multi-project move",
  "uid": "gitaly-multi-project-move",
  "version": 449
}