{
  "__inputs": [

  ],
  "__requires": [

  ],
  "annotations": {
    "list": [
      {
        "builtIn": 1,
        "datasource": "-- Grafana --",
        "enable": true,
        "hide": false,
        "iconColor": "#96D98D",
        "name": "deploy",
        "showIn": 0,
        "tags": [
          "deploy",
          "$environment"
        ],
        "type": "tags"
      },
      {
        "builtIn": 1,
        "datasource": "-- Grafana --",
        "enable": false,
        "hide": false,
        "iconColor": "#FFEE52",
        "name": "canary-deploy",
        "showIn": 0,
        "tags": [
          "deploy",
          "${environment}-cny"
        ],
        "type": "tags"
      },
      {
        "builtIn": 1,
        "datasource": "-- Grafana --",
        "enable": false,
        "hide": false,
        "iconColor": "#CA95E5",
        "name": "feature-flags",
        "showIn": 0,
        "tags": [
          "feature-flag",
          "${environment}"
        ],
        "type": "tags"
      }
    ]
  },
  "description": "Uploaded by https://gitlab.com/gitlab-com/runbooks/-/jobs/5751092186 at Thu Dec 14 10:03:54 UTC 2023",
  "editable": false,
  "gnetId": null,
  "graphTooltip": 1,
  "hideControls": false,
  "id": null,
  "links": [
    {
      "asDropdown": true,
      "icon": "external link",
      "includeVars": false,
      "keepTime": true,
      "tags": "",
      "targetBlank": false,
      "title": "🔙 Back to kas service",
      "type": "link",
      "url": "https://dashboards.gitlab.net/d/kas/kas?orgId=1"
    },
    {
      "asDropdown": true,
      "icon": "dashboard",
      "includeVars": true,
      "keepTime": true,
      "tags": "type:kas",
      "targetBlank": false,
      "title": "kas Detail",
      "type": "dashboards",
      "url": ""
    },
    {
      "asDropdown": true,
      "icon": "external link",
      "includeVars": true,
      "keepTime": true,
      "tags": [
        "managed",
        "type:kas",
        "kube detail"
      ],
      "targetBlank": false,
      "title": "☸️ kas Kubernetes Detail",
      "type": "dashboards",
      "url": ""
    }
  ],
  "panels": [
    {
      "collapse": false,
      "collapsed": false,
      "gridPos": {
        "h": 8,
        "w": 24,
        "x": 0,
        "y": 0
      },
      "id": 2,
      "panels": [

      ],
      "repeat": null,
      "repeatIteration": null,
      "repeatRowId": null,
      "showTitle": true,
      "title": "kas deployment",
      "titleSize": "h6",
      "type": "row"
    },
    {
      "aliasColors": {
      },
      "bars": false,
      "dashLength": 10,
      "dashes": false,
      "datasource": "$PROMETHEUS_DS",
      "decimals": 0,
      "description": "",
      "fill": 0,
      "fillGradient": 0,
      "gridPos": {
        "h": 8,
        "w": 12,
        "x": 0,
        "y": 8
      },
      "id": 3,
      "legend": {
        "alignAsTable": true,
        "avg": true,
        "current": true,
        "hideEmpty": true,
        "max": true,
        "min": true,
        "rightSide": false,
        "show": true,
        "sideWidth": null,
        "total": false,
        "values": true
      },
      "lines": true,
      "linewidth": 1,
      "links": [

      ],
      "nullPointMode": "null",
      "percentage": false,
      "pointradius": 5,
      "points": false,
      "renderer": "flot",
      "repeat": null,
      "seriesOverrides": [
        {
          "alias": "p99 kas Container CPU",
          "color": "#fade2a",
          "fill": 1,
          "lines": true,
          "linewidth": 1
        },
        {
          "alias": "p95 kas Container CPU",
          "color": "#d9cf52",
          "fill": 1,
          "lines": true,
          "linewidth": 1
        },
        {
          "alias": "p75 kas Container CPU",
          "color": "#b8c07a",
          "fill": 1,
          "lines": true,
          "linewidth": 1
        },
        {
          "alias": "p50 kas Container CPU",
          "color": "#98b1a2",
          "fill": 1,
          "lines": true,
          "linewidth": 1
        },
        {
          "alias": "p25 kas Container CPU",
          "color": "#77a2ca",
          "fill": 1,
          "lines": true,
          "linewidth": 1
        },
        {
          "alias": "p10 kas Container CPU",
          "color": "#5794f2",
          "fill": 1,
          "lines": true,
          "linewidth": 1
        }
      ],
      "spaceLength": 10,
      "stack": false,
      "steppedLine": false,
      "targets": [
        {
          "expr": "quantile(0.990000, rate(\n  container_cpu_usage_seconds_total:labeled{\n    container=\"kas\",deployment=\"kas\",env=\"$environment\",environment=\"$environment\",stage=\"$stage\",type=\"kas\"\n   }[$__rate_interval]\n )\n)\n",
          "format": "time_series",
          "interval": "1m",
          "intervalFactor": 2,
          "legendFormat": "p99 kas Container CPU",
          "refId": "A"
        },
        {
          "expr": "quantile(0.950000, rate(\n  container_cpu_usage_seconds_total:labeled{\n    container=\"kas\",deployment=\"kas\",env=\"$environment\",environment=\"$environment\",stage=\"$stage\",type=\"kas\"\n   }[$__rate_interval]\n )\n)\n",
          "format": "time_series",
          "interval": "1m",
          "intervalFactor": 2,
          "legendFormat": "p95 kas Container CPU",
          "refId": "B"
        },
        {
          "expr": "quantile(0.750000, rate(\n  container_cpu_usage_seconds_total:labeled{\n    container=\"kas\",deployment=\"kas\",env=\"$environment\",environment=\"$environment\",stage=\"$stage\",type=\"kas\"\n   }[$__rate_interval]\n )\n)\n",
          "format": "time_series",
          "interval": "1m",
          "intervalFactor": 2,
          "legendFormat": "p75 kas Container CPU",
          "refId": "C"
        },
        {
          "expr": "quantile(0.500000, rate(\n  container_cpu_usage_seconds_total:labeled{\n    container=\"kas\",deployment=\"kas\",env=\"$environment\",environment=\"$environment\",stage=\"$stage\",type=\"kas\"\n   }[$__rate_interval]\n )\n)\n",
          "format": "time_series",
          "interval": "1m",
          "intervalFactor": 2,
          "legendFormat": "p50 kas Container CPU",
          "refId": "D"
        },
        {
          "expr": "quantile(0.250000, rate(\n  container_cpu_usage_seconds_total:labeled{\n    container=\"kas\",deployment=\"kas\",env=\"$environment\",environment=\"$environment\",stage=\"$stage\",type=\"kas\"\n   }[$__rate_interval]\n )\n)\n",
          "format": "time_series",
          "interval": "1m",
          "intervalFactor": 2,
          "legendFormat": "p25 kas Container CPU",
          "refId": "E"
        },
        {
          "expr": "quantile(0.100000, rate(\n  container_cpu_usage_seconds_total:labeled{\n    container=\"kas\",deployment=\"kas\",env=\"$environment\",environment=\"$environment\",stage=\"$stage\",type=\"kas\"\n   }[$__rate_interval]\n )\n)\n",
          "format": "time_series",
          "interval": "1m",
          "intervalFactor": 2,
          "legendFormat": "p10 kas Container CPU",
          "refId": "F"
        }
      ],
      "thresholds": [

      ],
      "timeFrom": null,
      "timeShift": null,
      "title": "kas container/kas deployment - CPU",
      "tooltip": {
        "shared": true,
        "sort": 2,
        "value_type": "individual"
      },
      "type": "graph",
      "xaxis": {
        "buckets": null,
        "mode": "time",
        "name": null,
        "show": true,
        "values": [

        ]
      },
      "yaxes": [
        {
          "format": "percentunit",
          "label": "",
          "logBase": 1,
          "max": null,
          "min": 0,
          "show": true
        },
        {
          "format": "short",
          "label": null,
          "logBase": 1,
          "max": 1,
          "min": 0,
          "show": false
        }
      ]
    },
    {
      "aliasColors": {
      },
      "bars": false,
      "dashLength": 10,
      "dashes": false,
      "datasource": "$PROMETHEUS_DS",
      "decimals": 0,
      "description": "",
      "fill": 0,
      "fillGradient": 0,
      "gridPos": {
        "h": 8,
        "w": 12,
        "x": 12,
        "y": 8
      },
      "id": 4,
      "legend": {
        "alignAsTable": true,
        "avg": true,
        "current": true,
        "hideEmpty": true,
        "max": true,
        "min": true,
        "rightSide": false,
        "show": true,
        "sideWidth": null,
        "total": false,
        "values": true
      },
      "lines": true,
      "linewidth": 1,
      "links": [

      ],
      "nullPointMode": "null",
      "percentage": false,
      "pointradius": 5,
      "points": false,
      "renderer": "flot",
      "repeat": null,
      "seriesOverrides": [
        {
          "alias": "p99 kas Container Memory",
          "color": "#fade2a",
          "fill": 1,
          "lines": true,
          "linewidth": 1
        },
        {
          "alias": "p95 kas Container Memory",
          "color": "#d9cf52",
          "fill": 1,
          "lines": true,
          "linewidth": 1
        },
        {
          "alias": "p75 kas Container Memory",
          "color": "#b8c07a",
          "fill": 1,
          "lines": true,
          "linewidth": 1
        },
        {
          "alias": "p50 kas Container Memory",
          "color": "#98b1a2",
          "fill": 1,
          "lines": true,
          "linewidth": 1
        },
        {
          "alias": "p25 kas Container Memory",
          "color": "#77a2ca",
          "fill": 1,
          "lines": true,
          "linewidth": 1
        },
        {
          "alias": "p10 kas Container Memory",
          "color": "#5794f2",
          "fill": 1,
          "lines": true,
          "linewidth": 1
        }
      ],
      "spaceLength": 10,
      "stack": false,
      "steppedLine": false,
      "targets": [
        {
          "expr": "quantile(0.990000, container_memory_working_set_bytes:labeled{\n  container=\"kas\",deployment=\"kas\",env=\"$environment\",environment=\"$environment\",stage=\"$stage\",type=\"kas\"\n }\n)\n",
          "format": "time_series",
          "interval": "1m",
          "intervalFactor": 1,
          "legendFormat": "p99 kas Container Memory",
          "refId": "A"
        },
        {
          "expr": "quantile(0.950000, container_memory_working_set_bytes:labeled{\n  container=\"kas\",deployment=\"kas\",env=\"$environment\",environment=\"$environment\",stage=\"$stage\",type=\"kas\"\n }\n)\n",
          "format": "time_series",
          "interval": "1m",
          "intervalFactor": 1,
          "legendFormat": "p95 kas Container Memory",
          "refId": "B"
        },
        {
          "expr": "quantile(0.750000, container_memory_working_set_bytes:labeled{\n  container=\"kas\",deployment=\"kas\",env=\"$environment\",environment=\"$environment\",stage=\"$stage\",type=\"kas\"\n }\n)\n",
          "format": "time_series",
          "interval": "1m",
          "intervalFactor": 1,
          "legendFormat": "p75 kas Container Memory",
          "refId": "C"
        },
        {
          "expr": "quantile(0.500000, container_memory_working_set_bytes:labeled{\n  container=\"kas\",deployment=\"kas\",env=\"$environment\",environment=\"$environment\",stage=\"$stage\",type=\"kas\"\n }\n)\n",
          "format": "time_series",
          "interval": "1m",
          "intervalFactor": 1,
          "legendFormat": "p50 kas Container Memory",
          "refId": "D"
        },
        {
          "expr": "quantile(0.250000, container_memory_working_set_bytes:labeled{\n  container=\"kas\",deployment=\"kas\",env=\"$environment\",environment=\"$environment\",stage=\"$stage\",type=\"kas\"\n }\n)\n",
          "format": "time_series",
          "interval": "1m",
          "intervalFactor": 1,
          "legendFormat": "p25 kas Container Memory",
          "refId": "E"
        },
        {
          "expr": "quantile(0.100000, container_memory_working_set_bytes:labeled{\n  container=\"kas\",deployment=\"kas\",env=\"$environment\",environment=\"$environment\",stage=\"$stage\",type=\"kas\"\n }\n)\n",
          "format": "time_series",
          "interval": "1m",
          "intervalFactor": 1,
          "legendFormat": "p10 kas Container Memory",
          "refId": "F"
        }
      ],
      "thresholds": [

      ],
      "timeFrom": null,
      "timeShift": null,
      "title": "kas container/kas deployment - Memory",
      "tooltip": {
        "shared": true,
        "sort": 2,
        "value_type": "individual"
      },
      "type": "graph",
      "xaxis": {
        "buckets": null,
        "mode": "time",
        "name": null,
        "show": true,
        "values": [

        ]
      },
      "yaxes": [
        {
          "format": "bytes",
          "label": "",
          "logBase": 1,
          "max": null,
          "min": 0,
          "show": true
        },
        {
          "format": "short",
          "label": null,
          "logBase": 1,
          "max": 1,
          "min": 0,
          "show": false
        }
      ]
    },
    {
      "aliasColors": {
      },
      "bars": false,
      "dashLength": 10,
      "dashes": false,
      "datasource": "$PROMETHEUS_DS",
      "decimals": 0,
      "description": "Why are containers waiting?",
      "fill": 6,
      "fillGradient": 0,
      "gridPos": {
        "h": 8,
        "w": 12,
        "x": 0,
        "y": 16
      },
      "id": 4227481879,
      "legend": {
        "alignAsTable": true,
        "avg": true,
        "current": true,
        "hideEmpty": true,
        "max": true,
        "min": true,
        "rightSide": false,
        "show": true,
        "sideWidth": null,
        "total": false,
        "values": true
      },
      "lines": true,
      "linewidth": 0,
      "links": [

      ],
      "nullPointMode": "null",
      "percentage": false,
      "pointradius": 5,
      "points": false,
      "renderer": "flot",
      "repeat": null,
      "seriesOverrides": [
        {
          "alias": "CrashLoopBackOff",
          "color": "purple"
        },
        {
          "alias": "CreateContainerConfigError",
          "color": "yellow"
        },
        {
          "alias": "CreateContainerError",
          "color": "orange"
        },
        {
          "alias": "ErrImagePull",
          "color": "red"
        },
        {
          "alias": "ImagePullBackOff",
          "color": "#FA6400"
        },
        {
          "alias": "InvalidImageName",
          "color": "#C4162A"
        },
        {
          "alias": "ContainerCreating",
          "color": "blue"
        }
      ],
      "spaceLength": 10,
      "stableId": "container-terminations-kas-kas",
      "stack": true,
      "steppedLine": false,
      "targets": [
        {
          "expr": "sum by (reason) (max_over_time(kube_pod_container_status_waiting_reason:labeled{\n  container=\"kas\",deployment=\"kas\",env=\"$environment\",environment=\"$environment\",stage=\"$stage\",type=\"kas\"\n}[10m]))\n",
          "format": "time_series",
          "interval": "1m",
          "intervalFactor": 1,
          "legendFormat": "{{ reason }}",
          "refId": "A"
        }
      ],
      "thresholds": [

      ],
      "timeFrom": null,
      "timeShift": null,
      "title": "kas container/kas deployment - Container Waiting Reasons",
      "tooltip": {
        "shared": true,
        "sort": 2,
        "value_type": "individual"
      },
      "type": "graph",
      "xaxis": {
        "buckets": null,
        "mode": "time",
        "name": null,
        "show": true,
        "values": [

        ]
      },
      "yaxes": [
        {
          "format": "short",
          "label": "Containers Terminated",
          "logBase": 1,
          "max": null,
          "min": 0,
          "show": true
        },
        {
          "format": "short",
          "label": null,
          "logBase": 1,
          "max": 1,
          "min": 0,
          "show": false
        }
      ]
    },
    {
      "aliasColors": {
      },
      "bars": false,
      "dashLength": 10,
      "dashes": false,
      "datasource": "$PROMETHEUS_DS",
      "decimals": 0,
      "description": "Why are containers terminating?",
      "fill": 6,
      "fillGradient": 0,
      "gridPos": {
        "h": 8,
        "w": 12,
        "x": 12,
        "y": 16
      },
      "id": 784136764,
      "legend": {
        "alignAsTable": true,
        "avg": true,
        "current": true,
        "hideEmpty": true,
        "max": true,
        "min": true,
        "rightSide": false,
        "show": true,
        "sideWidth": null,
        "total": false,
        "values": true
      },
      "lines": true,
      "linewidth": 0,
      "links": [

      ],
      "nullPointMode": "null",
      "percentage": false,
      "pointradius": 5,
      "points": false,
      "renderer": "flot",
      "repeat": null,
      "seriesOverrides": [
        {
          "alias": "Completed",
          "color": "blue"
        },
        {
          "alias": "ContainerCannotRun",
          "color": "yellow"
        },
        {
          "alias": "DeadlineExceeded",
          "color": "orange"
        },
        {
          "alias": "Error",
          "color": "red"
        },
        {
          "alias": "Evicted",
          "color": "#FA6400"
        },
        {
          "alias": "OOMKilled",
          "color": "#C4162A"
        }
      ],
      "spaceLength": 10,
      "stableId": "container-waiting-kas-kas",
      "stack": true,
      "steppedLine": false,
      "targets": [
        {
          "expr": "sum by (reason) (max_over_time(kube_pod_container_status_terminated_reason:labeled{\n  container=\"kas\",deployment=\"kas\",env=\"$environment\",environment=\"$environment\",stage=\"$stage\",type=\"kas\"\n}[10m]))\n",
          "format": "time_series",
          "interval": "1m",
          "intervalFactor": 1,
          "legendFormat": "{{ reason }}",
          "refId": "A"
        }
      ],
      "thresholds": [

      ],
      "timeFrom": null,
      "timeShift": null,
      "title": "kas container/kas deployment - Container Terminations",
      "tooltip": {
        "shared": true,
        "sort": 2,
        "value_type": "individual"
      },
      "type": "graph",
      "xaxis": {
        "buckets": null,
        "mode": "time",
        "name": null,
        "show": true,
        "values": [

        ]
      },
      "yaxes": [
        {
          "format": "short",
          "label": "Containers Terminated",
          "logBase": 1,
          "max": null,
          "min": 0,
          "show": true
        },
        {
          "format": "short",
          "label": null,
          "logBase": 1,
          "max": 1,
          "min": 0,
          "show": false
        }
      ]
    },
    {
      "content": "Made with ❤️ and [Grafonnet](https://github.com/grafana/grafonnet-lib). [Contribute to this dashboard on GitLab.com](https://gitlab.com/gitlab-com/runbooks/blob/master/dashboards)\n",
      "datasource": null,
      "gridPos": {
        "h": 2,
        "w": 24,
        "x": 0,
        "y": 110000
      },
      "id": 7,
      "mode": "markdown",
      "title": "Source",
      "type": "text"
    }
  ],
  "refresh": "",
  "rows": [

  ],
  "schemaVersion": 16,
  "style": "light",
  "tags": [
    "managed",
    "kas",
    "kas",
    "type:kas",
    "kube",
    "kube detail"
  ],
  "templating": {
    "list": [
      {
        "current": {
          "text": "Global",
          "value": "Global"
        },
        "hide": 0,
        "label": null,
        "name": "PROMETHEUS_DS",
        "options": [

        ],
        "query": "prometheus",
        "refresh": 1,
        "regex": "",
        "type": "datasource"
      },
      {
        "allValue": null,
        "current": {
          "text": "gprd",
          "value": "gprd"
        },
        "datasource": "$PROMETHEUS_DS",
        "hide": 0,
        "includeAll": false,
        "label": null,
        "multi": false,
        "name": "environment",
        "options": [

        ],
        "query": "label_values(gitlab_service_ops:rate, environment)",
        "refresh": 1,
        "regex": "",
        "sort": 1,
        "tagValuesQuery": "",
        "tags": [

        ],
        "tagsQuery": "",
        "type": "query",
        "useTags": false
      },
      {
        "allValue": null,
        "current": {
          "text": "main",
          "value": "main"
        },
        "hide": 0,
        "includeAll": false,
        "label": "",
        "multi": false,
        "name": "stage",
        "options": [
          {
            "text": "main",
            "value": "main"
          },
          {
            "text": "cny",
            "value": "cny"
          },
          {
            "text": "",
            "value": ""
          }
        ],
        "query": "main,cny,",
        "refresh": 0,
        "type": "custom"
      }
    ]
  },
  "time": {
    "from": "now-6h/m",
    "to": "now/m"
  },
  "timepicker": {
    "refresh_intervals": [
      "1m",
      "5m",
      "10m",
      "15m",
      "30m"
    ],
    "time_options": [
      "5m",
      "15m",
      "1h",
      "6h",
      "12h",
      "24h",
      "2d",
      "7d",
      "30d"
    ]
  },
  "timezone": "utc",
  "title": "kas: Kube Containers Detail",
  "uid": "kas-kube-containers",
  "version": 3164
}