{
  "annotations": {
    "list": [
      {
        "builtIn": 1,
        "datasource": {
          "type": "grafana",
          "uid": "-- Grafana --"
        },
        "enable": true,
        "hide": true,
        "iconColor": "rgba(0, 211, 255, 1)",
        "name": "Annotations & Alerts",
        "type": "dashboard"
      }
    ]
  },
  "editable": true,
  "fiscalYearStartMonth": 0,
  "graphTooltip": 1,
  "id": null,
  "links": [
    {
      "asDropdown": true,
      "icon": "external link",
      "includeVars": true,
      "keepTime": true,
      "tags": [
        "mimir"
      ],
      "targetBlank": false,
      "title": "Mimir dashboards",
      "type": "dashboards"
    }
  ],
  "liveNow": false,
  "panels": [
    {
      "collapsed": false,
      "datasource": {
        "type": "prometheus",
        "uid": "PA258B30F88C30650"
      },
      "gridPos": {
        "h": 1,
        "w": 24,
        "x": 0,
        "y": 0
      },
      "id": 13,
      "panels": [

      ],
      "targets": [
        {
          "datasource": {
            "type": "prometheus",
            "uid": "PA258B30F88C30650"
          },
          "refId": "A"
        }
      ],
      "title": "Top tenants dashboard description",
      "type": "row"
    },
    {
      "datasource": {
        "type": "prometheus",
        "uid": "PA258B30F88C30650"
      },
      "description": "",
      "gridPos": {
        "h": 3,
        "w": 24,
        "x": 0,
        "y": 1
      },
      "id": 1,
      "options": {
        "code": {
          "language": "plaintext",
          "showLineNumbers": false,
          "showMiniMap": false
        },
        "content": "<p>\n  This dashboard shows the top tenants based on multiple selection criterias.\n  Rows are collapsed by default to avoid querying all of them.\n  Use the templating variable \"limit\" above to select the amount of users to be shown.\n</p>\n",
        "mode": "markdown"
      },
      "pluginVersion": "10.1.5",
      "targets": [
        {
          "datasource": {
            "type": "prometheus",
            "uid": "PA258B30F88C30650"
          },
          "refId": "A"
        }
      ],
      "transparent": true,
      "type": "text"
    },
    {
      "collapsed": false,
      "datasource": {
        "type": "prometheus",
        "uid": "PA258B30F88C30650"
      },
      "gridPos": {
        "h": 1,
        "w": 24,
        "x": 0,
        "y": 4
      },
      "id": 14,
      "panels": [

      ],
      "targets": [
        {
          "datasource": {
            "type": "prometheus",
            "uid": "PA258B30F88C30650"
          },
          "refId": "A"
        }
      ],
      "title": "By active series",
      "type": "row"
    },
    {
      "aliasColors": {
      },
      "bars": false,
      "columns": [

      ],
      "dashLength": 10,
      "dashes": false,
      "datasource": {
        "uid": "$datasource"
      },
      "fill": 1,
      "fontSize": "100%",
      "gridPos": {
        "h": 7,
        "w": 24,
        "x": 0,
        "y": 5
      },
      "id": 2,
      "legend": {
        "avg": false,
        "current": false,
        "max": false,
        "min": false,
        "show": true,
        "total": false,
        "values": false
      },
      "lines": true,
      "linewidth": 1,
      "links": [

      ],
      "nullPointMode": "null as zero",
      "percentage": false,
      "pointradius": 5,
      "points": false,
      "renderer": "flot",
      "seriesOverrides": [

      ],
      "showHeader": true,
      "sort": {
        "col": 2,
        "desc": true
      },
      "spaceLength": 10,
      "stack": false,
      "steppedLine": false,
      "styles": [
        {
          "alias": "Time",
          "align": "auto",
          "dateFormat": "YYYY-MM-DD HH:mm:ss",
          "pattern": "Time",
          "type": "hidden"
        },
        {
          "alias": "series",
          "align": "auto",
          "colors": [

          ],
          "dateFormat": "YYYY-MM-DD HH:mm:ss",
          "decimals": 2,
          "link": false,
          "linkTargetBlank": false,
          "linkTooltip": "Drill down",
          "linkUrl": "",
          "pattern": "Value #A",
          "thresholds": [

          ],
          "type": "number",
          "unit": "short"
        },
        {
          "alias": "",
          "align": "auto",
          "colors": [

          ],
          "dateFormat": "YYYY-MM-DD HH:mm:ss",
          "decimals": 2,
          "pattern": "/.*/",
          "thresholds": [

          ],
          "type": "string",
          "unit": "short"
        }
      ],
      "targets": [
        {
          "datasource": {
            "uid": "$datasource"
          },
          "expr": "topk($limit,\n  sum by (user) (\n    cortex_ingester_active_series{cluster=~\"$cluster\", job=~\"($namespace)/((ingester.*|cortex|mimir|mimir-write.*))\"}\n    / on(cluster, namespace) group_left\n    max by (cluster, namespace) (cortex_distributor_replication_factor{cluster=~\"$cluster\", job=~\"($namespace)/((distributor|cortex|mimir|mimir-write.*))\"})\n  )\n)\n",
          "format": "table",
          "instant": true,
          "intervalFactor": 2,
          "legendFormat": "",
          "refId": "A"
        }
      ],
      "thresholds": [

      ],
      "title": "Top $limit users by active series",
      "tooltip": {
        "shared": false,
        "sort": 0,
        "value_type": "individual"
      },
      "transform": "table",
      "type": "table-old",
      "xaxis": {
        "mode": "time",
        "show": true,
        "values": [

        ]
      },
      "yaxes": [
        {
          "format": "short",
          "logBase": 1,
          "min": 0,
          "show": true
        },
        {
          "format": "short",
          "logBase": 1,
          "show": false
        }
      ]
    },
    {
      "collapsed": true,
      "datasource": {
        "type": "prometheus",
        "uid": "PA258B30F88C30650"
      },
      "gridPos": {
        "h": 1,
        "w": 24,
        "x": 0,
        "y": 12
      },
      "id": 15,
      "panels": [
        {
          "aliasColors": {
          },
          "bars": false,
          "columns": [

          ],
          "dashLength": 10,
          "dashes": false,
          "datasource": {
            "uid": "$datasource"
          },
          "fill": 1,
          "fontSize": "100%",
          "gridPos": {
            "h": 7,
            "w": 24,
            "x": 0,
            "y": 13
          },
          "id": 3,
          "legend": {
            "avg": false,
            "current": false,
            "max": false,
            "min": false,
            "show": true,
            "total": false,
            "values": false
          },
          "lines": true,
          "linewidth": 1,
          "links": [

          ],
          "nullPointMode": "null as zero",
          "percentage": false,
          "pointradius": 5,
          "points": false,
          "renderer": "flot",
          "seriesOverrides": [

          ],
          "showHeader": true,
          "sort": {
            "col": 2,
            "desc": true
          },
          "spaceLength": 10,
          "stack": false,
          "steppedLine": false,
          "styles": [
            {
              "alias": "Time",
              "align": "auto",
              "dateFormat": "YYYY-MM-DD HH:mm:ss",
              "pattern": "Time",
              "type": "hidden"
            },
            {
              "alias": "series",
              "align": "auto",
              "colors": [

              ],
              "dateFormat": "YYYY-MM-DD HH:mm:ss",
              "decimals": 2,
              "link": false,
              "linkTargetBlank": false,
              "linkTooltip": "Drill down",
              "linkUrl": "",
              "pattern": "Value #A",
              "thresholds": [

              ],
              "type": "number",
              "unit": "short"
            },
            {
              "alias": "",
              "align": "auto",
              "colors": [

              ],
              "dateFormat": "YYYY-MM-DD HH:mm:ss",
              "decimals": 2,
              "pattern": "/.*/",
              "thresholds": [

              ],
              "type": "string",
              "unit": "short"
            }
          ],
          "targets": [
            {
              "datasource": {
                "uid": "$datasource"
              },
              "expr": "topk($limit, sum by (user) (\n  (\n      sum by (user, cluster, namespace) (cortex_ingester_memory_series_created_total{cluster=~\"$cluster\", job=~\"($namespace)/((ingester.*|cortex|mimir|mimir-write.*))\"} )\n      -\n      sum by (user, cluster, namespace) (cortex_ingester_memory_series_removed_total{cluster=~\"$cluster\", job=~\"($namespace)/((ingester.*|cortex|mimir|mimir-write.*))\"} )\n  )\n  / on(cluster, namespace) group_left\n  max by (cluster, namespace) (cortex_distributor_replication_factor{cluster=~\"$cluster\", job=~\"($namespace)/((distributor|cortex|mimir|mimir-write.*))\"} )\n)\n)",
              "format": "table",
              "instant": true,
              "intervalFactor": 2,
              "legendFormat": "",
              "refId": "A"
            }
          ],
          "thresholds": [

          ],
          "title": "Top $limit users by in-memory series (series created - series removed)",
          "tooltip": {
            "shared": false,
            "sort": 0,
            "value_type": "individual"
          },
          "transform": "table",
          "type": "table-old",
          "xaxis": {
            "mode": "time",
            "show": true,
            "values": [

            ]
          },
          "yaxes": [
            {
              "format": "short",
              "logBase": 1,
              "min": 0,
              "show": true
            },
            {
              "format": "short",
              "logBase": 1,
              "show": false
            }
          ]
        }
      ],
      "targets": [
        {
          "datasource": {
            "type": "prometheus",
            "uid": "PA258B30F88C30650"
          },
          "refId": "A"
        }
      ],
      "title": "By in-memory series",
      "type": "row"
    },
    {
      "collapsed": true,
      "datasource": {
        "type": "prometheus",
        "uid": "PA258B30F88C30650"
      },
      "gridPos": {
        "h": 1,
        "w": 24,
        "x": 0,
        "y": 13
      },
      "id": 16,
      "panels": [
        {
          "aliasColors": {
          },
          "bars": false,
          "dashLength": 10,
          "dashes": false,
          "datasource": {
            "uid": "$datasource"
          },
          "fill": 1,
          "fillGradient": 0,
          "gridPos": {
            "h": 7,
            "w": 24,
            "x": 0,
            "y": 14
          },
          "hiddenSeries": false,
          "id": 4,
          "legend": {
            "avg": false,
            "current": false,
            "max": false,
            "min": false,
            "show": true,
            "total": false,
            "values": false
          },
          "lines": true,
          "linewidth": 1,
          "links": [

          ],
          "nullPointMode": "null as zero",
          "options": {
            "alertThreshold": true
          },
          "percentage": false,
          "pluginVersion": "10.1.5",
          "pointradius": 5,
          "points": false,
          "renderer": "flot",
          "seriesOverrides": [

          ],
          "spaceLength": 10,
          "stack": false,
          "steppedLine": false,
          "targets": [
            {
              "datasource": {
                "uid": "$datasource"
              },
              "expr": "sum by (user) (\n  (\n      sum by (user, cluster, namespace) (cortex_ingester_memory_series_created_total{cluster=~\"$cluster\", job=~\"($namespace)/((ingester.*|cortex|mimir|mimir-write.*))\"} )\n      -\n      sum by (user, cluster, namespace) (cortex_ingester_memory_series_removed_total{cluster=~\"$cluster\", job=~\"($namespace)/((ingester.*|cortex|mimir|mimir-write.*))\"} )\n  )\n  / on(cluster, namespace) group_left\n  max by (cluster, namespace) (cortex_distributor_replication_factor{cluster=~\"$cluster\", job=~\"($namespace)/((distributor|cortex|mimir|mimir-write.*))\"} )\n)\n\nand\ntopk($limit, sum by (user) (\n  (\n      sum by (user, cluster, namespace) (cortex_ingester_memory_series_created_total{cluster=~\"$cluster\", job=~\"($namespace)/((ingester.*|cortex|mimir|mimir-write.*))\"} @ end())\n      -\n      sum by (user, cluster, namespace) (cortex_ingester_memory_series_removed_total{cluster=~\"$cluster\", job=~\"($namespace)/((ingester.*|cortex|mimir|mimir-write.*))\"} @ end())\n  )\n  / on(cluster, namespace) group_left\n  max by (cluster, namespace) (cortex_distributor_replication_factor{cluster=~\"$cluster\", job=~\"($namespace)/((distributor|cortex|mimir|mimir-write.*))\"} @ end())\n)\n - sum by (user) (\n  (\n      sum by (user, cluster, namespace) (cortex_ingester_memory_series_created_total{cluster=~\"$cluster\", job=~\"($namespace)/((ingester.*|cortex|mimir|mimir-write.*))\"} @ start())\n      -\n      sum by (user, cluster, namespace) (cortex_ingester_memory_series_removed_total{cluster=~\"$cluster\", job=~\"($namespace)/((ingester.*|cortex|mimir|mimir-write.*))\"} @ start())\n  )\n  / on(cluster, namespace) group_left\n  max by (cluster, namespace) (cortex_distributor_replication_factor{cluster=~\"$cluster\", job=~\"($namespace)/((distributor|cortex|mimir|mimir-write.*))\"} @ start())\n)\n)\n",
              "format": "time_series",
              "intervalFactor": 2,
              "legendFormat": "{{ user }}",
              "refId": "A"
            }
          ],
          "thresholds": [

          ],
          "timeRegions": [

          ],
          "title": "Top $limit users by in-memory series (series created - series removed) that grew the most between query range start and query range end",
          "tooltip": {
            "shared": false,
            "sort": 0,
            "value_type": "individual"
          },
          "type": "graph",
          "xaxis": {
            "mode": "time",
            "show": true,
            "values": [

            ]
          },
          "yaxes": [
            {
              "format": "short",
              "logBase": 1,
              "min": 0,
              "show": true
            },
            {
              "format": "short",
              "logBase": 1,
              "show": false
            }
          ],
          "yaxis": {
            "align": false
          }
        }
      ],
      "targets": [
        {
          "datasource": {
            "type": "prometheus",
            "uid": "PA258B30F88C30650"
          },
          "refId": "A"
        }
      ],
      "title": "By in-memory series growth",
      "type": "row"
    },
    {
      "collapsed": true,
      "datasource": {
        "type": "prometheus",
        "uid": "PA258B30F88C30650"
      },
      "gridPos": {
        "h": 1,
        "w": 24,
        "x": 0,
        "y": 14
      },
      "id": 17,
      "panels": [
        {
          "aliasColors": {
          },
          "bars": false,
          "dashLength": 10,
          "dashes": false,
          "datasource": {
            "uid": "$datasource"
          },
          "fill": 1,
          "gridPos": {
            "h": 7,
            "w": 24,
            "x": 0,
            "y": 8
          },
          "id": 5,
          "legend": {
            "avg": false,
            "current": false,
            "max": false,
            "min": false,
            "show": true,
            "total": false,
            "values": false
          },
          "lines": true,
          "linewidth": 1,
          "links": [

          ],
          "nullPointMode": "null as zero",
          "percentage": false,
          "pointradius": 5,
          "points": false,
          "renderer": "flot",
          "seriesOverrides": [

          ],
          "sort": {
            "col": 2,
            "desc": true
          },
          "spaceLength": 10,
          "stack": false,
          "steppedLine": false,
          "styles": [
            {
              "alias": "Time",
              "align": "auto",
              "dateFormat": "YYYY-MM-DD HH:mm:ss",
              "pattern": "Time",
              "type": "hidden"
            },
            {
              "alias": "samples/s",
              "align": "auto",
              "colors": [

              ],
              "dateFormat": "YYYY-MM-DD HH:mm:ss",
              "decimals": 2,
              "link": false,
              "linkTargetBlank": false,
              "linkTooltip": "Drill down",
              "linkUrl": "",
              "pattern": "Value #A",
              "thresholds": [

              ],
              "type": "number",
              "unit": "short"
            },
            {
              "alias": "",
              "align": "auto",
              "colors": [

              ],
              "dateFormat": "YYYY-MM-DD HH:mm:ss",
              "decimals": 2,
              "pattern": "/.*/",
              "thresholds": [

              ],
              "type": "string",
              "unit": "short"
            }
          ],
          "targets": [
            {
              "datasource": {
                "uid": "$datasource"
              },
              "expr": "topk($limit, sum by (user) (rate(cortex_distributor_received_samples_total{cluster=~\"$cluster\", job=~\"($namespace)/((distributor|cortex|mimir|mimir-write.*))\"}[5m])))",
              "format": "table",
              "instant": true,
              "intervalFactor": 2,
              "legendFormat": "",
              "refId": "A"
            }
          ],
          "thresholds": [

          ],
          "title": "Top $limit users by received samples rate in last 5m",
          "tooltip": {
            "shared": false,
            "sort": 0,
            "value_type": "individual"
          },
          "transform": "table",
          "type": "table-old",
          "xaxis": {
            "mode": "time",
            "show": true,
            "values": [

            ]
          },
          "yaxes": [
            {
              "format": "short",
              "logBase": 1,
              "min": 0,
              "show": true
            },
            {
              "format": "short",
              "logBase": 1,
              "show": false
            }
          ]
        }
      ],
      "targets": [
        {
          "datasource": {
            "type": "prometheus",
            "uid": "PA258B30F88C30650"
          },
          "refId": "A"
        }
      ],
      "title": "By samples rate",
      "type": "row"
    },
    {
      "collapsed": true,
      "datasource": {
        "type": "prometheus",
        "uid": "PA258B30F88C30650"
      },
      "gridPos": {
        "h": 1,
        "w": 24,
        "x": 0,
        "y": 15
      },
      "id": 18,
      "panels": [
        {
          "aliasColors": {
          },
          "bars": false,
          "dashLength": 10,
          "dashes": false,
          "datasource": {
            "uid": "$datasource"
          },
          "fill": 1,
          "gridPos": {
            "h": 7,
            "w": 24,
            "x": 0,
            "y": 9
          },
          "id": 6,
          "legend": {
            "avg": false,
            "current": false,
            "max": false,
            "min": false,
            "show": true,
            "total": false,
            "values": false
          },
          "lines": true,
          "linewidth": 1,
          "links": [

          ],
          "nullPointMode": "null as zero",
          "percentage": false,
          "pointradius": 5,
          "points": false,
          "renderer": "flot",
          "seriesOverrides": [

          ],
          "spaceLength": 10,
          "stack": false,
          "steppedLine": false,
          "targets": [
            {
              "datasource": {
                "uid": "$datasource"
              },
              "expr": "sum by (user) (rate(cortex_distributor_received_samples_total{cluster=~\"$cluster\", job=~\"($namespace)/((distributor|cortex|mimir|mimir-write.*))\"}[$__rate_interval]))\nand\ntopk($limit,\n  sum by (user) (rate(cortex_distributor_received_samples_total{cluster=~\"$cluster\", job=~\"($namespace)/((distributor|cortex|mimir|mimir-write.*))\"}[$__rate_interval] @ end()))\n  -\n  sum by (user) (rate(cortex_distributor_received_samples_total{cluster=~\"$cluster\", job=~\"($namespace)/((distributor|cortex|mimir|mimir-write.*))\"}[$__rate_interval] @ start()))\n)\n",
              "format": "time_series",
              "intervalFactor": 2,
              "legendFormat": "{{ user }}"
            }
          ],
          "thresholds": [

          ],
          "title": "Top $limit users by received samples rate that grew the most between query range start and query range end",
          "tooltip": {
            "shared": false,
            "sort": 0,
            "value_type": "individual"
          },
          "type": "graph",
          "xaxis": {
            "mode": "time",
            "show": true,
            "values": [

            ]
          },
          "yaxes": [
            {
              "format": "short",
              "logBase": 1,
              "min": 0,
              "show": true
            },
            {
              "format": "short",
              "logBase": 1,
              "show": false
            }
          ]
        }
      ],
      "targets": [
        {
          "datasource": {
            "type": "prometheus",
            "uid": "PA258B30F88C30650"
          },
          "refId": "A"
        }
      ],
      "title": "By samples rate growth",
      "type": "row"
    },
    {
      "collapsed": true,
      "datasource": {
        "type": "prometheus",
        "uid": "PA258B30F88C30650"
      },
      "gridPos": {
        "h": 1,
        "w": 24,
        "x": 0,
        "y": 16
      },
      "id": 19,
      "panels": [
        {
          "aliasColors": {
          },
          "bars": false,
          "dashLength": 10,
          "dashes": false,
          "datasource": {
            "uid": "$datasource"
          },
          "fill": 1,
          "gridPos": {
            "h": 7,
            "w": 24,
            "x": 0,
            "y": 10
          },
          "id": 7,
          "legend": {
            "avg": false,
            "current": false,
            "max": false,
            "min": false,
            "show": true,
            "total": false,
            "values": false
          },
          "lines": true,
          "linewidth": 1,
          "links": [

          ],
          "nullPointMode": "null as zero",
          "percentage": false,
          "pointradius": 5,
          "points": false,
          "renderer": "flot",
          "seriesOverrides": [

          ],
          "sort": {
            "col": 2,
            "desc": true
          },
          "spaceLength": 10,
          "stack": false,
          "steppedLine": false,
          "styles": [
            {
              "alias": "Time",
              "align": "auto",
              "dateFormat": "YYYY-MM-DD HH:mm:ss",
              "pattern": "Time",
              "type": "hidden"
            },
            {
              "alias": "samples/s",
              "align": "auto",
              "colors": [

              ],
              "dateFormat": "YYYY-MM-DD HH:mm:ss",
              "decimals": 2,
              "link": false,
              "linkTargetBlank": false,
              "linkTooltip": "Drill down",
              "linkUrl": "",
              "pattern": "Value #A",
              "thresholds": [

              ],
              "type": "number",
              "unit": "short"
            },
            {
              "alias": "",
              "align": "auto",
              "colors": [

              ],
              "dateFormat": "YYYY-MM-DD HH:mm:ss",
              "decimals": 2,
              "pattern": "/.*/",
              "thresholds": [

              ],
              "type": "string",
              "unit": "short"
            }
          ],
          "targets": [
            {
              "datasource": {
                "uid": "$datasource"
              },
              "expr": "topk($limit, sum by (user) (rate(cortex_discarded_samples_total{cluster=~\"$cluster\", job=~\"($namespace)/((ingester.*|cortex|mimir|mimir-write.*|distributor|cortex|mimir|mimir-write.*))\"}[5m])))",
              "format": "table",
              "instant": true,
              "intervalFactor": 2,
              "legendFormat": "",
              "refId": "A"
            }
          ],
          "thresholds": [

          ],
          "title": "Top $limit users by discarded samples rate in last 5m",
          "tooltip": {
            "shared": false,
            "sort": 0,
            "value_type": "individual"
          },
          "transform": "table",
          "type": "table-old",
          "xaxis": {
            "mode": "time",
            "show": true,
            "values": [

            ]
          },
          "yaxes": [
            {
              "format": "short",
              "logBase": 1,
              "min": 0,
              "show": true
            },
            {
              "format": "short",
              "logBase": 1,
              "show": false
            }
          ]
        }
      ],
      "targets": [
        {
          "datasource": {
            "type": "prometheus",
            "uid": "PA258B30F88C30650"
          },
          "refId": "A"
        }
      ],
      "title": "By discarded samples rate",
      "type": "row"
    },
    {
      "collapsed": true,
      "datasource": {
        "type": "prometheus",
        "uid": "PA258B30F88C30650"
      },
      "gridPos": {
        "h": 1,
        "w": 24,
        "x": 0,
        "y": 17
      },
      "id": 20,
      "panels": [
        {
          "aliasColors": {
          },
          "bars": false,
          "dashLength": 10,
          "dashes": false,
          "datasource": {
            "uid": "$datasource"
          },
          "fill": 1,
          "gridPos": {
            "h": 7,
            "w": 24,
            "x": 0,
            "y": 11
          },
          "id": 8,
          "legend": {
            "avg": false,
            "current": false,
            "max": false,
            "min": false,
            "show": true,
            "total": false,
            "values": false
          },
          "lines": true,
          "linewidth": 1,
          "links": [

          ],
          "nullPointMode": "null as zero",
          "percentage": false,
          "pointradius": 5,
          "points": false,
          "renderer": "flot",
          "seriesOverrides": [

          ],
          "spaceLength": 10,
          "stack": false,
          "steppedLine": false,
          "targets": [
            {
              "datasource": {
                "uid": "$datasource"
              },
              "expr": "sum by (user) (rate(cortex_discarded_samples_total{cluster=~\"$cluster\", job=~\"($namespace)/((ingester.*|cortex|mimir|mimir-write.*|distributor|cortex|mimir|mimir-write.*))\"}[$__rate_interval]))\nand\ntopk($limit,\n  sum by (user) (rate(cortex_discarded_samples_total{cluster=~\"$cluster\", job=~\"($namespace)/((ingester.*|cortex|mimir|mimir-write.*|distributor|cortex|mimir|mimir-write.*))\"}[$__rate_interval] @ end()))\n  -\n  sum by (user) (rate(cortex_discarded_samples_total{cluster=~\"$cluster\", job=~\"($namespace)/((ingester.*|cortex|mimir|mimir-write.*|distributor|cortex|mimir|mimir-write.*))\"}[$__rate_interval] @ start()))\n)\n",
              "format": "time_series",
              "intervalFactor": 2,
              "legendFormat": "{{ user }}"
            }
          ],
          "thresholds": [

          ],
          "title": "Top $limit users by discarded samples rate that grew the most between query range start and query range end",
          "tooltip": {
            "shared": false,
            "sort": 0,
            "value_type": "individual"
          },
          "type": "graph",
          "xaxis": {
            "mode": "time",
            "show": true,
            "values": [

            ]
          },
          "yaxes": [
            {
              "format": "short",
              "logBase": 1,
              "min": 0,
              "show": true
            },
            {
              "format": "short",
              "logBase": 1,
              "show": false
            }
          ]
        }
      ],
      "targets": [
        {
          "datasource": {
            "type": "prometheus",
            "uid": "PA258B30F88C30650"
          },
          "refId": "A"
        }
      ],
      "title": "By discarded samples rate growth",
      "type": "row"
    },
    {
      "collapsed": true,
      "datasource": {
        "type": "prometheus",
        "uid": "PA258B30F88C30650"
      },
      "gridPos": {
        "h": 1,
        "w": 24,
        "x": 0,
        "y": 18
      },
      "id": 21,
      "panels": [
        {
          "aliasColors": {
          },
          "bars": false,
          "dashLength": 10,
          "dashes": false,
          "datasource": {
            "uid": "$datasource"
          },
          "fill": 1,
          "gridPos": {
            "h": 7,
            "w": 24,
            "x": 0,
            "y": 12
          },
          "id": 9,
          "legend": {
            "avg": false,
            "current": false,
            "max": false,
            "min": false,
            "show": true,
            "total": false,
            "values": false
          },
          "lines": true,
          "linewidth": 1,
          "links": [

          ],
          "nullPointMode": "null as zero",
          "percentage": false,
          "pointradius": 5,
          "points": false,
          "renderer": "flot",
          "seriesOverrides": [

          ],
          "sort": {
            "col": 2,
            "desc": true
          },
          "spaceLength": 10,
          "stack": false,
          "steppedLine": false,
          "styles": [
            {
              "alias": "Time",
              "align": "auto",
              "dateFormat": "YYYY-MM-DD HH:mm:ss",
              "pattern": "Time",
              "type": "hidden"
            },
            {
              "alias": "series",
              "align": "auto",
              "colors": [

              ],
              "dateFormat": "YYYY-MM-DD HH:mm:ss",
              "decimals": 2,
              "link": false,
              "linkTargetBlank": false,
              "linkTooltip": "Drill down",
              "linkUrl": "",
              "pattern": "Value #A",
              "thresholds": [

              ],
              "type": "number",
              "unit": "short"
            },
            {
              "alias": "",
              "align": "auto",
              "colors": [

              ],
              "dateFormat": "YYYY-MM-DD HH:mm:ss",
              "decimals": 2,
              "pattern": "/.*/",
              "thresholds": [

              ],
              "type": "string",
              "unit": "short"
            }
          ],
          "targets": [
            {
              "datasource": {
                "uid": "$datasource"
              },
              "expr": "topk($limit,\n  sum by (user) (\n    cortex_ingester_tsdb_exemplar_series_with_exemplars_in_storage{cluster=~\"$cluster\", job=~\"($namespace)/((ingester.*|cortex|mimir|mimir-write.*))\"}\n    / on(cluster, namespace) group_left\n    max by (cluster, namespace) (cortex_distributor_replication_factor{cluster=~\"$cluster\", job=~\"($namespace)/((distributor|cortex|mimir|mimir-write.*))\"})\n  )\n)\n",
              "format": "table",
              "instant": true,
              "intervalFactor": 2,
              "legendFormat": "",
              "refId": "A"
            }
          ],
          "thresholds": [

          ],
          "title": "Top $limit users by series with exemplars",
          "tooltip": {
            "shared": false,
            "sort": 0,
            "value_type": "individual"
          },
          "transform": "table",
          "type": "table-old",
          "xaxis": {
            "mode": "time",
            "show": true,
            "values": [

            ]
          },
          "yaxes": [
            {
              "format": "short",
              "logBase": 1,
              "min": 0,
              "show": true
            },
            {
              "format": "short",
              "logBase": 1,
              "show": false
            }
          ]
        }
      ],
      "targets": [
        {
          "datasource": {
            "type": "prometheus",
            "uid": "PA258B30F88C30650"
          },
          "refId": "A"
        }
      ],
      "title": "By series with exemplars",
      "type": "row"
    },
    {
      "collapsed": true,
      "datasource": {
        "type": "prometheus",
        "uid": "PA258B30F88C30650"
      },
      "gridPos": {
        "h": 1,
        "w": 24,
        "x": 0,
        "y": 19
      },
      "id": 22,
      "panels": [
        {
          "aliasColors": {
          },
          "bars": false,
          "dashLength": 10,
          "dashes": false,
          "datasource": {
            "uid": "$datasource"
          },
          "fill": 1,
          "gridPos": {
            "h": 7,
            "w": 24,
            "x": 0,
            "y": 13
          },
          "id": 10,
          "legend": {
            "avg": false,
            "current": false,
            "max": false,
            "min": false,
            "show": true,
            "total": false,
            "values": false
          },
          "lines": true,
          "linewidth": 1,
          "links": [

          ],
          "nullPointMode": "null as zero",
          "percentage": false,
          "pointradius": 5,
          "points": false,
          "renderer": "flot",
          "seriesOverrides": [

          ],
          "sort": {
            "col": 2,
            "desc": true
          },
          "spaceLength": 10,
          "stack": false,
          "steppedLine": false,
          "styles": [
            {
              "alias": "Time",
              "align": "auto",
              "dateFormat": "YYYY-MM-DD HH:mm:ss",
              "pattern": "Time",
              "type": "hidden"
            },
            {
              "alias": "exemplars/s",
              "align": "auto",
              "colors": [

              ],
              "dateFormat": "YYYY-MM-DD HH:mm:ss",
              "decimals": 2,
              "link": false,
              "linkTargetBlank": false,
              "linkTooltip": "Drill down",
              "linkUrl": "",
              "pattern": "Value #A",
              "thresholds": [

              ],
              "type": "number",
              "unit": "short"
            },
            {
              "alias": "",
              "align": "auto",
              "colors": [

              ],
              "dateFormat": "YYYY-MM-DD HH:mm:ss",
              "decimals": 2,
              "pattern": "/.*/",
              "thresholds": [

              ],
              "type": "string",
              "unit": "short"
            }
          ],
          "targets": [
            {
              "datasource": {
                "uid": "$datasource"
              },
              "expr": "topk($limit, sum by (user) (rate(cortex_distributor_received_exemplars_total{cluster=~\"$cluster\", job=~\"($namespace)/((distributor|cortex|mimir|mimir-write.*))\"}[5m])))",
              "format": "table",
              "instant": true,
              "intervalFactor": 2,
              "legendFormat": "",
              "refId": "A"
            }
          ],
          "thresholds": [

          ],
          "title": "Top $limit users by received exemplars rate in last 5m",
          "tooltip": {
            "shared": false,
            "sort": 0,
            "value_type": "individual"
          },
          "transform": "table",
          "type": "table-old",
          "xaxis": {
            "mode": "time",
            "show": true,
            "values": [

            ]
          },
          "yaxes": [
            {
              "format": "short",
              "logBase": 1,
              "min": 0,
              "show": true
            },
            {
              "format": "short",
              "logBase": 1,
              "show": false
            }
          ]
        }
      ],
      "targets": [
        {
          "datasource": {
            "type": "prometheus",
            "uid": "PA258B30F88C30650"
          },
          "refId": "A"
        }
      ],
      "title": "By exemplars rate",
      "type": "row"
    },
    {
      "collapsed": true,
      "datasource": {
        "type": "prometheus",
        "uid": "PA258B30F88C30650"
      },
      "gridPos": {
        "h": 1,
        "w": 24,
        "x": 0,
        "y": 20
      },
      "id": 23,
      "panels": [
        {
          "aliasColors": {
          },
          "bars": false,
          "dashLength": 10,
          "dashes": false,
          "datasource": {
            "uid": "$datasource"
          },
          "fill": 1,
          "gridPos": {
            "h": 7,
            "w": 24,
            "x": 0,
            "y": 14
          },
          "id": 11,
          "legend": {
            "avg": false,
            "current": false,
            "max": false,
            "min": false,
            "show": true,
            "total": false,
            "values": false
          },
          "lines": true,
          "linewidth": 1,
          "links": [

          ],
          "nullPointMode": "null as zero",
          "percentage": false,
          "pointradius": 5,
          "points": false,
          "renderer": "flot",
          "seriesOverrides": [

          ],
          "sort": {
            "col": 3,
            "desc": true
          },
          "spaceLength": 10,
          "stack": false,
          "steppedLine": false,
          "styles": [
            {
              "alias": "Time",
              "align": "auto",
              "dateFormat": "YYYY-MM-DD HH:mm:ss",
              "pattern": "Time",
              "type": "hidden"
            },
            {
              "alias": "rules",
              "align": "auto",
              "colors": [

              ],
              "dateFormat": "YYYY-MM-DD HH:mm:ss",
              "decimals": 2,
              "link": false,
              "linkTargetBlank": false,
              "linkTooltip": "Drill down",
              "linkUrl": "",
              "pattern": "Value #A",
              "thresholds": [

              ],
              "type": "number",
              "unit": "short"
            },
            {
              "alias": "",
              "align": "auto",
              "colors": [

              ],
              "dateFormat": "YYYY-MM-DD HH:mm:ss",
              "decimals": 2,
              "pattern": "/.*/",
              "thresholds": [

              ],
              "type": "string",
              "unit": "short"
            }
          ],
          "targets": [
            {
              "datasource": {
                "uid": "$datasource"
              },
              "expr": "topk($limit, sum by (rule_group, user) (cortex_prometheus_rule_group_rules{cluster=~\"$cluster\", job=~\"($namespace)/((ruler|cortex|mimir|mimir-backend.*))\"}))",
              "format": "table",
              "instant": true,
              "intervalFactor": 2,
              "legendFormat": "",
              "refId": "A"
            }
          ],
          "thresholds": [

          ],
          "title": "Top $limit biggest groups",
          "tooltip": {
            "shared": false,
            "sort": 0,
            "value_type": "individual"
          },
          "transform": "table",
          "type": "table-old",
          "xaxis": {
            "mode": "time",
            "show": true,
            "values": [

            ]
          },
          "yaxes": [
            {
              "format": "short",
              "logBase": 1,
              "min": 0,
              "show": true
            },
            {
              "format": "short",
              "logBase": 1,
              "show": false
            }
          ]
        }
      ],
      "targets": [
        {
          "datasource": {
            "type": "prometheus",
            "uid": "PA258B30F88C30650"
          },
          "refId": "A"
        }
      ],
      "title": "By rule group size",
      "type": "row"
    },
    {
      "collapsed": true,
      "datasource": {
        "type": "prometheus",
        "uid": "PA258B30F88C30650"
      },
      "gridPos": {
        "h": 1,
        "w": 24,
        "x": 0,
        "y": 21
      },
      "id": 24,
      "panels": [
        {
          "aliasColors": {
          },
          "bars": false,
          "dashLength": 10,
          "dashes": false,
          "datasource": {
            "uid": "$datasource"
          },
          "fill": 1,
          "gridPos": {
            "h": 7,
            "w": 24,
            "x": 0,
            "y": 15
          },
          "id": 12,
          "legend": {
            "avg": false,
            "current": false,
            "max": false,
            "min": false,
            "show": true,
            "total": false,
            "values": false
          },
          "lines": true,
          "linewidth": 1,
          "links": [

          ],
          "nullPointMode": "null as zero",
          "percentage": false,
          "pointradius": 5,
          "points": false,
          "renderer": "flot",
          "seriesOverrides": [

          ],
          "sort": {
            "col": 3,
            "desc": true
          },
          "spaceLength": 10,
          "stack": false,
          "steppedLine": false,
          "styles": [
            {
              "alias": "Time",
              "align": "auto",
              "dateFormat": "YYYY-MM-DD HH:mm:ss",
              "pattern": "Time",
              "type": "hidden"
            },
            {
              "alias": "seconds",
              "align": "auto",
              "colors": [

              ],
              "dateFormat": "YYYY-MM-DD HH:mm:ss",
              "decimals": 2,
              "link": false,
              "linkTargetBlank": false,
              "linkTooltip": "Drill down",
              "linkUrl": "",
              "pattern": "Value #A",
              "thresholds": [

              ],
              "type": "number",
              "unit": "short"
            },
            {
              "alias": "",
              "align": "auto",
              "colors": [

              ],
              "dateFormat": "YYYY-MM-DD HH:mm:ss",
              "decimals": 2,
              "pattern": "/.*/",
              "thresholds": [

              ],
              "type": "string",
              "unit": "short"
            }
          ],
          "targets": [
            {
              "datasource": {
                "uid": "$datasource"
              },
              "expr": "topk($limit, sum by (rule_group, user) (cortex_prometheus_rule_group_last_duration_seconds{cluster=~\"$cluster\", job=~\"($namespace)/((ruler|cortex|mimir|mimir-backend.*))\"}))",
              "format": "table",
              "instant": true,
              "intervalFactor": 2,
              "legendFormat": "",
              "refId": "A"
            }
          ],
          "thresholds": [

          ],
          "title": "Top $limit slowest groups (last evaluation)",
          "tooltip": {
            "shared": false,
            "sort": 0,
            "value_type": "individual"
          },
          "transform": "table",
          "type": "table-old",
          "xaxis": {
            "mode": "time",
            "show": true,
            "values": [

            ]
          },
          "yaxes": [
            {
              "format": "short",
              "logBase": 1,
              "min": 0,
              "show": true
            },
            {
              "format": "short",
              "logBase": 1,
              "show": false
            }
          ]
        }
      ],
      "targets": [
        {
          "datasource": {
            "type": "prometheus",
            "uid": "PA258B30F88C30650"
          },
          "refId": "A"
        }
      ],
      "title": "By rule group evaluation time",
      "type": "row"
    }
  ],
  "refresh": "5m",
  "schemaVersion": 38,
  "style": "dark",
  "tags": [
    "mimir",
    "protected",
    "unmanaged"
  ],
  "templating": {
    "list": [
      {
        "current": {
          "selected": true,
          "text": "Mimir - Global",
          "value": "e58c2f51-20f8-4f4b-ad48-2968782ca7d6"
        },
        "hide": 0,
        "includeAll": false,
        "label": "Data Source",
        "multi": false,
        "name": "datasource",
        "options": [

        ],
        "query": "prometheus",
        "queryValue": "",
        "refresh": 1,
        "regex": "",
        "skipUrlSync": false,
        "type": "datasource"
      },
      {
        "allValue": ".+",
        "current": {
          "selected": false,
          "text": "All",
          "value": "$__all"
        },
        "datasource": {
          "type": "prometheus",
          "uid": "$datasource"
        },
        "definition": "",
        "hide": 0,
        "includeAll": true,
        "label": "cluster",
        "multi": true,
        "name": "cluster",
        "options": [

        ],
        "query": "label_values(cortex_build_info, cluster)",
        "refresh": 1,
        "regex": "",
        "skipUrlSync": false,
        "sort": 1,
        "tagValuesQuery": "",
        "tagsQuery": "",
        "type": "query",
        "useTags": false
      },
      {
        "allValue": ".+",
        "current": {
          "selected": false,
          "text": "All",
          "value": "$__all"
        },
        "datasource": {
          "type": "prometheus",
          "uid": "$datasource"
        },
        "definition": "",
        "hide": 0,
        "includeAll": true,
        "label": "namespace",
        "multi": true,
        "name": "namespace",
        "options": [

        ],
        "query": "label_values(cortex_build_info{cluster=~\"$cluster\"}, namespace)",
        "refresh": 1,
        "regex": "",
        "skipUrlSync": false,
        "sort": 1,
        "tagValuesQuery": "",
        "tagsQuery": "",
        "type": "query",
        "useTags": false
      },
      {
        "current": {
          "selected": true,
          "text": "10",
          "value": "10"
        },
        "hide": 0,
        "includeAll": false,
        "multi": false,
        "name": "limit",
        "options": [
          {
            "selected": true,
            "text": "10",
            "value": "10"
          },
          {
            "selected": false,
            "text": "50",
            "value": "50"
          },
          {
            "selected": false,
            "text": "100",
            "value": "100"
          }
        ],
        "query": "",
        "skipUrlSync": false,
        "type": "custom"
      }
    ]
  },
  "time": {
    "from": "now-1h",
    "to": "now"
  },
  "timepicker": {
    "refresh_intervals": [
      "5s",
      "10s",
      "30s",
      "1m",
      "5m",
      "15m",
      "30m",
      "1h",
      "2h",
      "1d"
    ],
    "time_options": [
      "5m",
      "15m",
      "1h",
      "6h",
      "12h",
      "24h",
      "2d",
      "7d",
      "30d"
    ]
  },
  "timezone": "utc",
  "title": "Mimir / Top tenants",
  "uid": "bc6e12d4fe540e4a1785b9d3ca0ffdd9",
  "version": 4,
  "weekStart": ""
}