{
  "annotations": {
    "list": [

    ]
  },
  "description": "Uploaded by https://gitlab.com/gitlab-com/runbooks/-/jobs/5751092186 at Thu Dec 14 10:01:23 UTC 2023",
  "editable": true,
  "gnetId": null,
  "graphTooltip": 0,
  "hideControls": false,
  "id": null,
  "links": [

  ],
  "refresh": "5m",
  "rows": [
    {
      "collapse": false,
      "height": "250px",
      "panels": [
        {
          "aliasColors": {
          },
          "bars": false,
          "dashLength": 10,
          "dashes": false,
          "datasource": "$datasource",
          "fill": 1,
          "id": 1,
          "legend": {
            "avg": false,
            "current": false,
            "max": false,
            "min": false,
            "show": true,
            "total": false,
            "values": false
          },
          "lines": true,
          "linewidth": 1,
          "links": [

          ],
          "nullPointMode": "null as zero",
          "percentage": false,
          "pointradius": 5,
          "points": false,
          "renderer": "flot",
          "seriesOverrides": [

          ],
          "spaceLength": 10,
          "span": 6,
          "stack": false,
          "steppedLine": false,
          "targets": [
            {
              "expr": "sum(rate(memcached_commands_total{cluster=~\"$cluster\", job=~\"$job\", instance=~\"$instance\", command=\"get\", status=\"hit\"}[$__rate_interval])) / sum(rate(memcached_commands_total{cluster=~\"$cluster\", job=~\"$job\", command=\"get\"}[$__rate_interval]))",
              "format": "time_series",
              "legendFormat": "Hit Rate",
              "legendLink": null
            }
          ],
          "thresholds": [

          ],
          "timeFrom": null,
          "timeShift": null,
          "title": "Hit Rate",
          "tooltip": {
            "shared": true,
            "sort": 2,
            "value_type": "individual"
          },
          "type": "graph",
          "xaxis": {
            "buckets": null,
            "mode": "time",
            "name": null,
            "show": true,
            "values": [

            ]
          },
          "yaxes": [
            {
              "format": "percentunit",
              "label": null,
              "logBase": 1,
              "max": null,
              "min": 0,
              "show": true
            },
            {
              "format": "short",
              "label": null,
              "logBase": 1,
              "max": null,
              "min": null,
              "show": false
            }
          ]
        },
        {
          "aliasColors": {
          },
          "bars": false,
          "dashLength": 10,
          "dashes": false,
          "datasource": "$datasource",
          "fill": 1,
          "id": 2,
          "legend": {
            "avg": false,
            "current": false,
            "max": false,
            "min": false,
            "show": true,
            "total": false,
            "values": false
          },
          "lines": true,
          "linewidth": 1,
          "links": [

          ],
          "nullPointMode": "null as zero",
          "percentage": false,
          "pointradius": 5,
          "points": false,
          "renderer": "flot",
          "seriesOverrides": [

          ],
          "spaceLength": 10,
          "span": 6,
          "stack": false,
          "steppedLine": false,
          "targets": [
            {
              "expr": "topk(20,\n  max by (cluster, job, instance) (\n    memcached_current_connections{cluster=~\"$cluster\", job=~\"$job\", instance=~\"$instance\"} / memcached_max_connections{cluster=~\"$cluster\", job=~\"$job\", instance=~\"$instance\"}\n))\n",
              "format": "time_series",
              "legendFormat": "{{ cluster }} / {{ job }} / {{ instance }}",
              "legendLink": null
            }
          ],
          "thresholds": [

          ],
          "timeFrom": null,
          "timeShift": null,
          "title": "Top 20 Highest Connection Usage",
          "tooltip": {
            "shared": true,
            "sort": 2,
            "value_type": "individual"
          },
          "type": "graph",
          "xaxis": {
            "buckets": null,
            "mode": "time",
            "name": null,
            "show": true,
            "values": [

            ]
          },
          "yaxes": [
            {
              "format": "percentunit",
              "label": null,
              "logBase": 1,
              "max": null,
              "min": 0,
              "show": true
            },
            {
              "format": "short",
              "label": null,
              "logBase": 1,
              "max": null,
              "min": null,
              "show": false
            }
          ]
        }
      ],
      "repeat": null,
      "repeatIteration": null,
      "repeatRowId": null,
      "showTitle": true,
      "title": "Hits",
      "titleSize": "h6"
    },
    {
      "collapse": false,
      "height": "250px",
      "panels": [
        {
          "aliasColors": {
          },
          "bars": false,
          "dashLength": 10,
          "dashes": false,
          "datasource": "$datasource",
          "fill": 1,
          "id": 3,
          "legend": {
            "avg": false,
            "current": false,
            "max": false,
            "min": false,
            "show": true,
            "total": false,
            "values": false
          },
          "lines": true,
          "linewidth": 1,
          "links": [

          ],
          "nullPointMode": "null as zero",
          "percentage": false,
          "pointradius": 5,
          "points": false,
          "renderer": "flot",
          "seriesOverrides": [

          ],
          "spaceLength": 10,
          "span": 4,
          "stack": false,
          "steppedLine": false,
          "targets": [
            {
              "expr": "sum by(command, status) (rate(memcached_commands_total{cluster=~\"$cluster\", job=~\"$job\", instance=~\"$instance\"}[$__rate_interval]))",
              "format": "time_series",
              "legendFormat": "{{command}} {{status}}",
              "legendLink": null
            }
          ],
          "thresholds": [

          ],
          "timeFrom": null,
          "timeShift": null,
          "title": "Commands",
          "tooltip": {
            "shared": true,
            "sort": 2,
            "value_type": "individual"
          },
          "type": "graph",
          "xaxis": {
            "buckets": null,
            "mode": "time",
            "name": null,
            "show": true,
            "values": [

            ]
          },
          "yaxes": [
            {
              "format": "short",
              "label": null,
              "logBase": 1,
              "max": null,
              "min": 0,
              "show": true
            },
            {
              "format": "short",
              "label": null,
              "logBase": 1,
              "max": null,
              "min": null,
              "show": false
            }
          ]
        },
        {
          "aliasColors": {
          },
          "bars": false,
          "dashLength": 10,
          "dashes": false,
          "datasource": "$datasource",
          "fill": 1,
          "id": 4,
          "legend": {
            "avg": false,
            "current": false,
            "max": false,
            "min": false,
            "show": true,
            "total": false,
            "values": false
          },
          "lines": true,
          "linewidth": 1,
          "links": [

          ],
          "nullPointMode": "null as zero",
          "percentage": false,
          "pointradius": 5,
          "points": false,
          "renderer": "flot",
          "seriesOverrides": [

          ],
          "spaceLength": 10,
          "span": 4,
          "stack": false,
          "steppedLine": false,
          "targets": [
            {
              "expr": "sum by(instance) (rate(memcached_items_evicted_total{cluster=~\"$cluster\", job=~\"$job\", instance=~\"$instance\"}[$__rate_interval]))",
              "format": "time_series",
              "legendFormat": "{{instance}}",
              "legendLink": null
            }
          ],
          "thresholds": [

          ],
          "timeFrom": null,
          "timeShift": null,
          "title": "Evictions",
          "tooltip": {
            "shared": true,
            "sort": 2,
            "value_type": "individual"
          },
          "type": "graph",
          "xaxis": {
            "buckets": null,
            "mode": "time",
            "name": null,
            "show": true,
            "values": [

            ]
          },
          "yaxes": [
            {
              "format": "short",
              "label": null,
              "logBase": 1,
              "max": null,
              "min": 0,
              "show": true
            },
            {
              "format": "short",
              "label": null,
              "logBase": 1,
              "max": null,
              "min": null,
              "show": false
            }
          ]
        },
        {
          "aliasColors": {
          },
          "bars": false,
          "dashLength": 10,
          "dashes": false,
          "datasource": "$datasource",
          "fill": 1,
          "id": 5,
          "legend": {
            "avg": false,
            "current": false,
            "max": false,
            "min": false,
            "show": true,
            "total": false,
            "values": false
          },
          "lines": true,
          "linewidth": 1,
          "links": [

          ],
          "nullPointMode": "null as zero",
          "percentage": false,
          "pointradius": 5,
          "points": false,
          "renderer": "flot",
          "seriesOverrides": [

          ],
          "spaceLength": 10,
          "span": 4,
          "stack": false,
          "steppedLine": false,
          "targets": [
            {
              "expr": "sum by(instance) (rate(memcached_items_total{cluster=~\"$cluster\", job=~\"$job\", instance=~\"$instance\"}[$__rate_interval]))",
              "format": "time_series",
              "legendFormat": "{{instance}}",
              "legendLink": null
            }
          ],
          "thresholds": [

          ],
          "timeFrom": null,
          "timeShift": null,
          "title": "Stored",
          "tooltip": {
            "shared": true,
            "sort": 2,
            "value_type": "individual"
          },
          "type": "graph",
          "xaxis": {
            "buckets": null,
            "mode": "time",
            "name": null,
            "show": true,
            "values": [

            ]
          },
          "yaxes": [
            {
              "format": "short",
              "label": null,
              "logBase": 1,
              "max": null,
              "min": 0,
              "show": true
            },
            {
              "format": "short",
              "label": null,
              "logBase": 1,
              "max": null,
              "min": null,
              "show": false
            }
          ]
        }
      ],
      "repeat": null,
      "repeatIteration": null,
      "repeatRowId": null,
      "showTitle": true,
      "title": "Ops",
      "titleSize": "h6"
    },
    {
      "collapse": false,
      "height": "250px",
      "panels": [
        {
          "aliasColors": {
          },
          "bars": false,
          "dashLength": 10,
          "dashes": false,
          "datasource": "$datasource",
          "fill": 10,
          "id": 6,
          "legend": {
            "avg": false,
            "current": false,
            "max": false,
            "min": false,
            "show": true,
            "total": false,
            "values": false
          },
          "lines": true,
          "linewidth": 0,
          "links": [

          ],
          "nullPointMode": "null as zero",
          "percentage": false,
          "pointradius": 5,
          "points": false,
          "renderer": "flot",
          "seriesOverrides": [

          ],
          "spaceLength": 10,
          "span": 4,
          "stack": true,
          "steppedLine": false,
          "targets": [
            {
              "expr": "sum by (instance) (\n  rate(memcached_process_user_cpu_seconds_total{cluster=~\"$cluster\", job=~\"$job\", instance=~\"$instance\"}[$__rate_interval]) +\n  rate(memcached_process_system_cpu_seconds_total{cluster=~\"$cluster\", job=~\"$job\", instance=~\"$instance\"}[$__rate_interval])\n)\n",
              "format": "time_series",
              "legendFormat": "{{instance}}",
              "legendLink": null
            }
          ],
          "thresholds": [

          ],
          "timeFrom": null,
          "timeShift": null,
          "title": "CPU",
          "tooltip": {
            "shared": true,
            "sort": 2,
            "value_type": "individual"
          },
          "type": "graph",
          "xaxis": {
            "buckets": null,
            "mode": "time",
            "name": null,
            "show": true,
            "values": [

            ]
          },
          "yaxes": [
            {
              "format": "short",
              "label": null,
              "logBase": 1,
              "max": null,
              "min": 0,
              "show": true
            },
            {
              "format": "short",
              "label": null,
              "logBase": 1,
              "max": null,
              "min": null,
              "show": false
            }
          ]
        },
        {
          "aliasColors": {
          },
          "bars": false,
          "dashLength": 10,
          "dashes": false,
          "datasource": "$datasource",
          "fill": 10,
          "id": 7,
          "legend": {
            "avg": false,
            "current": false,
            "max": false,
            "min": false,
            "show": true,
            "total": false,
            "values": false
          },
          "lines": true,
          "linewidth": 0,
          "links": [

          ],
          "nullPointMode": "null as zero",
          "percentage": false,
          "pointradius": 5,
          "points": false,
          "renderer": "flot",
          "seriesOverrides": [

          ],
          "spaceLength": 10,
          "span": 4,
          "stack": true,
          "steppedLine": false,
          "targets": [
            {
              "expr": "sum by(instance) (memcached_current_bytes{cluster=~\"$cluster\", job=~\"$job\", instance=~\"$instance\"})",
              "format": "time_series",
              "legendFormat": "{{instance}}",
              "legendLink": null
            }
          ],
          "thresholds": [

          ],
          "timeFrom": null,
          "timeShift": null,
          "title": "Memory",
          "tooltip": {
            "shared": true,
            "sort": 2,
            "value_type": "individual"
          },
          "type": "graph",
          "xaxis": {
            "buckets": null,
            "mode": "time",
            "name": null,
            "show": true,
            "values": [

            ]
          },
          "yaxes": [
            {
              "format": "bytes",
              "label": null,
              "logBase": 1,
              "max": null,
              "min": 0,
              "show": true
            },
            {
              "format": "short",
              "label": null,
              "logBase": 1,
              "max": null,
              "min": null,
              "show": false
            }
          ]
        },
        {
          "aliasColors": {
          },
          "bars": false,
          "dashLength": 10,
          "dashes": false,
          "datasource": "$datasource",
          "fill": 10,
          "id": 8,
          "legend": {
            "avg": false,
            "current": false,
            "max": false,
            "min": false,
            "show": true,
            "total": false,
            "values": false
          },
          "lines": true,
          "linewidth": 0,
          "links": [

          ],
          "nullPointMode": "null as zero",
          "percentage": false,
          "pointradius": 5,
          "points": false,
          "renderer": "flot",
          "seriesOverrides": [

          ],
          "spaceLength": 10,
          "span": 4,
          "stack": true,
          "steppedLine": false,
          "targets": [
            {
              "expr": "sum by(instance) (memcached_current_items{cluster=~\"$cluster\", job=~\"$job\", instance=~\"$instance\"})",
              "format": "time_series",
              "legendFormat": "{{instance}}",
              "legendLink": null
            }
          ],
          "thresholds": [

          ],
          "timeFrom": null,
          "timeShift": null,
          "title": "Items",
          "tooltip": {
            "shared": true,
            "sort": 2,
            "value_type": "individual"
          },
          "type": "graph",
          "xaxis": {
            "buckets": null,
            "mode": "time",
            "name": null,
            "show": true,
            "values": [

            ]
          },
          "yaxes": [
            {
              "format": "short",
              "label": null,
              "logBase": 1,
              "max": null,
              "min": 0,
              "show": true
            },
            {
              "format": "short",
              "label": null,
              "logBase": 1,
              "max": null,
              "min": null,
              "show": false
            }
          ]
        }
      ],
      "repeat": null,
      "repeatIteration": null,
      "repeatRowId": null,
      "showTitle": true,
      "title": "Resources",
      "titleSize": "h6"
    },
    {
      "collapse": false,
      "height": "250px",
      "panels": [
        {
          "aliasColors": {
          },
          "bars": false,
          "dashLength": 10,
          "dashes": false,
          "datasource": "$datasource",
          "fill": 1,
          "id": 9,
          "legend": {
            "avg": false,
            "current": false,
            "max": false,
            "min": false,
            "show": true,
            "total": false,
            "values": false
          },
          "lines": true,
          "linewidth": 1,
          "links": [

          ],
          "nullPointMode": "null as zero",
          "percentage": false,
          "pointradius": 5,
          "points": false,
          "renderer": "flot",
          "seriesOverrides": [

          ],
          "spaceLength": 10,
          "span": 3,
          "stack": false,
          "steppedLine": false,
          "targets": [
            {
              "expr": "sum by(instance) (memcached_current_connections{cluster=~\"$cluster\", job=~\"$job\", instance=~\"$instance\"})",
              "format": "time_series",
              "legendFormat": "{{instance}}",
              "legendLink": null
            },
            {
              "expr": "min(memcached_max_connections{cluster=~\"$cluster\", job=~\"$job\", instance=~\"$instance\"})",
              "format": "time_series",
              "legendFormat": "Max Connections (min setting across all instances)",
              "legendLink": null
            }
          ],
          "thresholds": [

          ],
          "timeFrom": null,
          "timeShift": null,
          "title": "Current Connections",
          "tooltip": {
            "shared": true,
            "sort": 2,
            "value_type": "individual"
          },
          "type": "graph",
          "xaxis": {
            "buckets": null,
            "mode": "time",
            "name": null,
            "show": true,
            "values": [

            ]
          },
          "yaxes": [
            {
              "format": "short",
              "label": null,
              "logBase": 1,
              "max": null,
              "min": 0,
              "show": true
            },
            {
              "format": "short",
              "label": null,
              "logBase": 1,
              "max": null,
              "min": null,
              "show": false
            }
          ]
        },
        {
          "aliasColors": {
          },
          "bars": false,
          "dashLength": 10,
          "dashes": false,
          "datasource": "$datasource",
          "fill": 1,
          "id": 10,
          "legend": {
            "avg": false,
            "current": false,
            "max": false,
            "min": false,
            "show": true,
            "total": false,
            "values": false
          },
          "lines": true,
          "linewidth": 1,
          "links": [

          ],
          "nullPointMode": "null as zero",
          "percentage": false,
          "pointradius": 5,
          "points": false,
          "renderer": "flot",
          "seriesOverrides": [

          ],
          "spaceLength": 10,
          "span": 3,
          "stack": false,
          "steppedLine": false,
          "targets": [
            {
              "expr": "sum by(instance) (rate(memcached_connections_total{cluster=~\"$cluster\", job=~\"$job\", instance=~\"$instance\"}[$__rate_interval]))",
              "format": "time_series",
              "legendFormat": "{{instance}}",
              "legendLink": null
            }
          ],
          "thresholds": [

          ],
          "timeFrom": null,
          "timeShift": null,
          "title": "Connections / sec",
          "tooltip": {
            "shared": true,
            "sort": 2,
            "value_type": "individual"
          },
          "type": "graph",
          "xaxis": {
            "buckets": null,
            "mode": "time",
            "name": null,
            "show": true,
            "values": [

            ]
          },
          "yaxes": [
            {
              "format": "short",
              "label": null,
              "logBase": 1,
              "max": null,
              "min": 0,
              "show": true
            },
            {
              "format": "short",
              "label": null,
              "logBase": 1,
              "max": null,
              "min": null,
              "show": false
            }
          ]
        },
        {
          "aliasColors": {
          },
          "bars": false,
          "dashLength": 10,
          "dashes": false,
          "datasource": "$datasource",
          "fill": 1,
          "id": 11,
          "legend": {
            "avg": false,
            "current": false,
            "max": false,
            "min": false,
            "show": true,
            "total": false,
            "values": false
          },
          "lines": true,
          "linewidth": 1,
          "links": [

          ],
          "nullPointMode": "null as zero",
          "percentage": false,
          "pointradius": 5,
          "points": false,
          "renderer": "flot",
          "seriesOverrides": [

          ],
          "spaceLength": 10,
          "span": 3,
          "stack": false,
          "steppedLine": false,
          "targets": [
            {
              "expr": "sum by(instance) (rate(memcached_read_bytes_total{cluster=~\"$cluster\", job=~\"$job\", instance=~\"$instance\"}[$__rate_interval]))",
              "format": "time_series",
              "legendFormat": "{{instance}}",
              "legendLink": null
            }
          ],
          "thresholds": [

          ],
          "timeFrom": null,
          "timeShift": null,
          "title": "Bytes received",
          "tooltip": {
            "shared": true,
            "sort": 2,
            "value_type": "individual"
          },
          "type": "graph",
          "xaxis": {
            "buckets": null,
            "mode": "time",
            "name": null,
            "show": true,
            "values": [

            ]
          },
          "yaxes": [
            {
              "format": "Bps",
              "label": null,
              "logBase": 1,
              "max": null,
              "min": 0,
              "show": true
            },
            {
              "format": "short",
              "label": null,
              "logBase": 1,
              "max": null,
              "min": null,
              "show": false
            }
          ]
        },
        {
          "aliasColors": {
          },
          "bars": false,
          "dashLength": 10,
          "dashes": false,
          "datasource": "$datasource",
          "fill": 1,
          "id": 12,
          "legend": {
            "avg": false,
            "current": false,
            "max": false,
            "min": false,
            "show": true,
            "total": false,
            "values": false
          },
          "lines": true,
          "linewidth": 1,
          "links": [

          ],
          "nullPointMode": "null as zero",
          "percentage": false,
          "pointradius": 5,
          "points": false,
          "renderer": "flot",
          "seriesOverrides": [

          ],
          "spaceLength": 10,
          "span": 3,
          "stack": false,
          "steppedLine": false,
          "targets": [
            {
              "expr": "sum by(instance) (rate(memcached_written_bytes_total{cluster=~\"$cluster\", job=~\"$job\", instance=~\"$instance\"}[$__rate_interval]))",
              "format": "time_series",
              "legendFormat": "{{instance}}",
              "legendLink": null
            }
          ],
          "thresholds": [

          ],
          "timeFrom": null,
          "timeShift": null,
          "title": "Bytes transmitted",
          "tooltip": {
            "shared": true,
            "sort": 2,
            "value_type": "individual"
          },
          "type": "graph",
          "xaxis": {
            "buckets": null,
            "mode": "time",
            "name": null,
            "show": true,
            "values": [

            ]
          },
          "yaxes": [
            {
              "format": "Bps",
              "label": null,
              "logBase": 1,
              "max": null,
              "min": 0,
              "show": true
            },
            {
              "format": "short",
              "label": null,
              "logBase": 1,
              "max": null,
              "min": null,
              "show": false
            }
          ]
        }
      ],
      "repeat": null,
      "repeatIteration": null,
      "repeatRowId": null,
      "showTitle": true,
      "title": "Network",
      "titleSize": "h6"
    },
    {
      "collapse": false,
      "height": "250px",
      "panels": [
        {
          "aliasColors": {
          },
          "bars": false,
          "dashLength": 10,
          "dashes": false,
          "datasource": "$datasource",
          "fill": 1,
          "id": 13,
          "legend": {
            "avg": false,
            "current": false,
            "max": false,
            "min": false,
            "show": true,
            "total": false,
            "values": false
          },
          "lines": true,
          "linewidth": 1,
          "links": [

          ],
          "nullPointMode": "null as zero",
          "percentage": false,
          "pointradius": 5,
          "points": false,
          "renderer": "flot",
          "seriesOverrides": [

          ],
          "spaceLength": 10,
          "span": 12,
          "stack": false,
          "steppedLine": false,
          "styles": [
            {
              "alias": "Time",
              "dateFormat": "YYYY-MM-DD HH:mm:ss",
              "pattern": "Time",
              "type": "hidden"
            },
            {
              "alias": "Count",
              "colorMode": null,
              "colors": [

              ],
              "dateFormat": "YYYY-MM-DD HH:mm:ss",
              "decimals": 2,
              "link": false,
              "linkTargetBlank": false,
              "linkTooltip": "Drill down",
              "linkUrl": "",
              "pattern": "Value #A",
              "thresholds": [

              ],
              "type": "hidden",
              "unit": "short"
            },
            {
              "alias": "Uptime",
              "colorMode": null,
              "colors": [

              ],
              "dateFormat": "YYYY-MM-DD HH:mm:ss",
              "decimals": 2,
              "link": false,
              "linkTargetBlank": false,
              "linkTooltip": "Drill down",
              "linkUrl": "",
              "pattern": "Value #B",
              "thresholds": [

              ],
              "type": "number",
              "unit": "dtdurations"
            },
            {
              "alias": "Instance",
              "colorMode": null,
              "colors": [

              ],
              "dateFormat": "YYYY-MM-DD HH:mm:ss",
              "decimals": 2,
              "link": false,
              "linkTargetBlank": false,
              "linkTooltip": "Drill down",
              "linkUrl": "",
              "pattern": "instance",
              "thresholds": [

              ],
              "type": "number",
              "unit": "short"
            },
            {
              "alias": "Job",
              "colorMode": null,
              "colors": [

              ],
              "dateFormat": "YYYY-MM-DD HH:mm:ss",
              "decimals": 2,
              "link": false,
              "linkTargetBlank": false,
              "linkTooltip": "Drill down",
              "linkUrl": "",
              "pattern": "job",
              "thresholds": [

              ],
              "type": "number",
              "unit": "short"
            },
            {
              "alias": "Version",
              "colorMode": null,
              "colors": [

              ],
              "dateFormat": "YYYY-MM-DD HH:mm:ss",
              "decimals": 2,
              "link": false,
              "linkTargetBlank": false,
              "linkTooltip": "Drill down",
              "linkUrl": "",
              "pattern": "version",
              "thresholds": [

              ],
              "type": "number",
              "unit": "short"
            },
            {
              "alias": "",
              "colorMode": null,
              "colors": [

              ],
              "dateFormat": "YYYY-MM-DD HH:mm:ss",
              "decimals": 2,
              "pattern": "/.*/",
              "thresholds": [

              ],
              "type": "string",
              "unit": "short"
            }
          ],
          "targets": [
            {
              "expr": "count by (job, instance, version) (memcached_version{cluster=~\"$cluster\", job=~\"$job\", instance=~\"$instance\"})",
              "format": "table",
              "instant": true,
              "legendFormat": "",
              "refId": "A"
            },
            {
              "expr": "max by (job, instance) (memcached_uptime_seconds{cluster=~\"$cluster\", job=~\"$job\", instance=~\"$instance\"})",
              "format": "table",
              "instant": true,
              "legendFormat": "",
              "refId": "B"
            }
          ],
          "thresholds": [

          ],
          "timeFrom": null,
          "timeShift": null,
          "title": "Memcached Info",
          "tooltip": {
            "shared": true,
            "sort": 2,
            "value_type": "individual"
          },
          "transform": "table",
          "type": "table",
          "xaxis": {
            "buckets": null,
            "mode": "time",
            "name": null,
            "show": true,
            "values": [

            ]
          },
          "yaxes": [
            {
              "format": "short",
              "label": null,
              "logBase": 1,
              "max": null,
              "min": 0,
              "show": true
            },
            {
              "format": "short",
              "label": null,
              "logBase": 1,
              "max": null,
              "min": null,
              "show": false
            }
          ]
        }
      ],
      "repeat": null,
      "repeatIteration": null,
      "repeatRowId": null,
      "showTitle": true,
      "title": "Memcached Info",
      "titleSize": "h6"
    }
  ],
  "schemaVersion": 14,
  "style": "dark",
  "tags": [
    "managed",
    "thanos"
  ],
  "templating": {
    "list": [
      {
        "current": {
          "text": "default",
          "value": "default"
        },
        "hide": 0,
        "label": "Data Source",
        "name": "datasource",
        "options": [

        ],
        "query": "prometheus",
        "refresh": 1,
        "regex": "",
        "type": "datasource"
      },
      {
        "allValue": ".+",
        "current": {
          "selected": true,
          "text": "All",
          "value": "$__all"
        },
        "datasource": "$datasource",
        "hide": 0,
        "includeAll": true,
        "label": "cluster",
        "multi": true,
        "name": "cluster",
        "options": [

        ],
        "query": "label_values(memcached_commands_total, cluster)",
        "refresh": 1,
        "regex": "",
        "sort": 2,
        "tagValuesQuery": "",
        "tags": [

        ],
        "tagsQuery": "",
        "type": "query",
        "useTags": false
      },
      {
        "allValue": ".+",
        "current": {
          "selected": true,
          "text": "All",
          "value": "$__all"
        },
        "datasource": "$datasource",
        "hide": 0,
        "includeAll": true,
        "label": "job",
        "multi": true,
        "name": "job",
        "options": [

        ],
        "query": "label_values(memcached_commands_total{cluster=~\"$cluster\"}, job)",
        "refresh": 1,
        "regex": "",
        "sort": 2,
        "tagValuesQuery": "",
        "tags": [

        ],
        "tagsQuery": "",
        "type": "query",
        "useTags": false
      },
      {
        "allValue": ".+",
        "current": {
          "selected": true,
          "text": "All",
          "value": "$__all"
        },
        "datasource": "$datasource",
        "hide": 0,
        "includeAll": true,
        "label": "instance",
        "multi": true,
        "name": "instance",
        "options": [

        ],
        "query": "label_values(memcached_commands_total{cluster=~\"$cluster\",job=~\"$job\"}, instance)",
        "refresh": 1,
        "regex": "",
        "sort": 2,
        "tagValuesQuery": "",
        "tags": [

        ],
        "tagsQuery": "",
        "type": "query",
        "useTags": false
      }
    ]
  },
  "time": {
    "from": "now-1h",
    "to": "now"
  },
  "timepicker": {
    "refresh_intervals": [
      "5s",
      "10s",
      "30s",
      "1m",
      "5m",
      "15m",
      "30m",
      "1h",
      "2h",
      "1d"
    ],
    "time_options": [
      "5m",
      "15m",
      "1h",
      "6h",
      "12h",
      "24h",
      "2d",
      "7d",
      "30d"
    ]
  },
  "timezone": "utc",
  "title": "thanos: Thanos: Memcached Overview",
  "uid": "thanos-memcached-overview",
  "version": 1123
}